<?xml version="1.0" encoding="UTF-8" standalone="no"?>
<!-- Created with Inkscape (http://www.inkscape.org/) -->

<svg
   xmlns:dc="http://purl.org/dc/elements/1.1/"
   xmlns:cc="http://creativecommons.org/ns#"
   xmlns:rdf="http://www.w3.org/1999/02/22-rdf-syntax-ns#"
   xmlns:svg="http://www.w3.org/2000/svg"
   xmlns="http://www.w3.org/2000/svg"
   xmlns:sodipodi="http://sodipodi.sourceforge.net/DTD/sodipodi-0.dtd"
   xmlns:inkscape="http://www.inkscape.org/namespaces/inkscape"
   id="svg2"
   version="1.1"
   inkscape:version="0.91 r"
   xml:space="preserve"
   width="630"
   height="630"
   viewBox="0 0 630 630"
   sodipodi:docname="graph-floss-exp.pdf"><metadata
     id="metadata8"><rdf:RDF><cc:Work
         rdf:about=""><dc:format>image/svg+xml</dc:format><dc:type
           rdf:resource="http://purl.org/dc/dcmitype/StillImage" /><dc:title></dc:title></cc:Work></rdf:RDF></metadata><defs
     id="defs6"><clipPath
       clipPathUnits="userSpaceOnUse"
       id="clipPath88"><path
         d="m 59.04,73.44 414.72,0 0,429.12 -414.72,0 0,-429.12 z"
         id="path90"
         inkscape:connector-curvature="0" /></clipPath></defs><sodipodi:namedview
     pagecolor="#ffffff"
     bordercolor="#666666"
     borderopacity="1"
     objecttolerance="10"
     gridtolerance="10"
     guidetolerance="10"
     inkscape:pageopacity="0"
     inkscape:pageshadow="2"
     inkscape:window-width="755"
     inkscape:window-height="480"
     id="namedview4"
     showgrid="false"
     inkscape:zoom="0.37460317"
     inkscape:cx="4.0042373"
     inkscape:cy="315"
     inkscape:window-x="0"
     inkscape:window-y="0"
     inkscape:window-maximized="0"
     inkscape:current-layer="g10" /><g
     id="g10"
     inkscape:groupmode="layer"
     inkscape:label="graph-floss-exp"
     transform="matrix(1.25,0,0,-1.25,0,630)"><g
       id="g12" /><g
       id="g14"><path
         d="m 74.4,73.44 83.48,0 0,316.19 -83.48,0 0,-316.19 z"
         style="fill:#ffffff;fill-opacity:1;fill-rule:nonzero;stroke:#000000;stroke-width:0.75;stroke-linecap:round;stroke-linejoin:round;stroke-miterlimit:10;stroke-dasharray:none;stroke-opacity:1"
         id="path16"
         inkscape:connector-curvature="0" /><path
         d="m 174.57,73.44 83.48,0 0,48.93 -83.48,0 0,-48.93 z"
         style="fill:#ffffff;fill-opacity:1;fill-rule:nonzero;stroke:#000000;stroke-width:0.75;stroke-linecap:round;stroke-linejoin:round;stroke-miterlimit:10;stroke-dasharray:none;stroke-opacity:1"
         id="path18"
         inkscape:connector-curvature="0" /><path
         d="m 274.75,73.44 83.48,0 0,79.05 -83.48,0 0,-79.05 z"
         style="fill:#ffffff;fill-opacity:1;fill-rule:nonzero;stroke:#000000;stroke-width:0.75;stroke-linecap:round;stroke-linejoin:round;stroke-miterlimit:10;stroke-dasharray:none;stroke-opacity:1"
         id="path20"
         inkscape:connector-curvature="0" /><path
         d="m 374.92,73.44 83.48,0 0,357.6 -83.48,0 0,-357.6 z"
         style="fill:#ffffff;fill-opacity:1;fill-rule:nonzero;stroke:#000000;stroke-width:0.75;stroke-linecap:round;stroke-linejoin:round;stroke-miterlimit:10;stroke-dasharray:none;stroke-opacity:1"
         id="path22"
         inkscape:connector-curvature="0" /></g><g
       id="g24"><text
         transform="matrix(1,0,0,-1,83.3,47.52)"
         style="font-variant:normal;font-weight:normal;font-size:17px;font-family:Helvetica;-inkscape-font-specification:Helvetica;writing-mode:lr-tb;fill:#000000;fill-opacity:1;fill-rule:nonzero;stroke:none"
         id="text26"><tspan
           x="0 9.9280005 14.654 24.106001 28.832001 38.284 47.736 57.188"
           y="0"
           sodipodi:role="line"
           id="tspan28">&lt; 4 anos</tspan></text>
<text
         transform="matrix(1,0,0,-1,176.62,47.52)"
         style="font-variant:normal;font-weight:normal;font-size:17px;font-family:Helvetica;-inkscape-font-specification:Helvetica;writing-mode:lr-tb;fill:#000000;fill-opacity:1;fill-rule:nonzero;stroke:none"
         id="text30"><tspan
           x="0 9.4519997 14.178 23.629999 28.356001 37.807999 42.534 51.986 61.438 70.889999"
           y="0"
           sodipodi:role="line"
           id="tspan32">4 a 7 anos</tspan></text>
<text
         transform="matrix(1,0,0,-1,283.64,47.52)"
         style="font-variant:normal;font-weight:normal;font-size:17px;font-family:Helvetica;-inkscape-font-specification:Helvetica;writing-mode:lr-tb;fill:#000000;fill-opacity:1;fill-rule:nonzero;stroke:none"
         id="text34"><tspan
           x="0 9.9280005 14.654 24.106001 28.832001 38.284 47.736 57.188"
           y="0"
           sodipodi:role="line"
           id="tspan36">&gt; 7 anos</tspan></text>
<text
         transform="matrix(1,0,0,-1,394.24,47.52)"
         style="font-variant:normal;font-weight:normal;font-size:17px;font-family:Helvetica;-inkscape-font-specification:Helvetica;writing-mode:lr-tb;fill:#000000;fill-opacity:1;fill-rule:nonzero;stroke:none"
         id="text38"><tspan
           x="0 12.274 17 21.726 26.452 35.903999 40.119999"
           y="0"
           sodipodi:role="line"
           id="tspan40">N. Inf.</tspan></text>
</g><g
       id="g42" /><g
       id="g44"><path
         d="m 59.04,73.44 0,376.42"
         style="fill:none;stroke:#000000;stroke-width:0.75;stroke-linecap:round;stroke-linejoin:round;stroke-miterlimit:10;stroke-dasharray:none;stroke-opacity:1"
         id="path46"
         inkscape:connector-curvature="0" /><path
         d="m 59.04,73.44 -7.2,0"
         style="fill:none;stroke:#000000;stroke-width:0.75;stroke-linecap:round;stroke-linejoin:round;stroke-miterlimit:10;stroke-dasharray:none;stroke-opacity:1"
         id="path48"
         inkscape:connector-curvature="0" /><path
         d="m 59.04,148.72 -7.2,0"
         style="fill:none;stroke:#000000;stroke-width:0.75;stroke-linecap:round;stroke-linejoin:round;stroke-miterlimit:10;stroke-dasharray:none;stroke-opacity:1"
         id="path50"
         inkscape:connector-curvature="0" /><path
         d="m 59.04,224.01 -7.2,0"
         style="fill:none;stroke:#000000;stroke-width:0.75;stroke-linecap:round;stroke-linejoin:round;stroke-miterlimit:10;stroke-dasharray:none;stroke-opacity:1"
         id="path52"
         inkscape:connector-curvature="0" /><path
         d="m 59.04,299.29 -7.2,0"
         style="fill:none;stroke:#000000;stroke-width:0.75;stroke-linecap:round;stroke-linejoin:round;stroke-miterlimit:10;stroke-dasharray:none;stroke-opacity:1"
         id="path54"
         inkscape:connector-curvature="0" /><path
         d="m 59.04,374.58 -7.2,0"
         style="fill:none;stroke:#000000;stroke-width:0.75;stroke-linecap:round;stroke-linejoin:round;stroke-miterlimit:10;stroke-dasharray:none;stroke-opacity:1"
         id="path56"
         inkscape:connector-curvature="0" /><path
         d="m 59.04,449.86 -7.2,0"
         style="fill:none;stroke:#000000;stroke-width:0.75;stroke-linecap:round;stroke-linejoin:round;stroke-miterlimit:10;stroke-dasharray:none;stroke-opacity:1"
         id="path58"
         inkscape:connector-curvature="0" /><text
         transform="matrix(0,1,1,0,41.76,70.1)"
         style="font-variant:normal;font-weight:normal;font-size:12px;font-family:Helvetica;-inkscape-font-specification:Helvetica;writing-mode:lr-tb;fill:#000000;fill-opacity:1;fill-rule:nonzero;stroke:none"
         id="text60"><tspan
           x="0"
           y="0"
           id="tspan62">0</tspan></text>
<text
         transform="matrix(0,1,1,0,41.76,142.05)"
         style="font-variant:normal;font-weight:normal;font-size:12px;font-family:Helvetica;-inkscape-font-specification:Helvetica;writing-mode:lr-tb;fill:#000000;fill-opacity:1;fill-rule:nonzero;stroke:none"
         id="text64"><tspan
           x="0 6.6719999"
           y="0"
           sodipodi:role="line"
           id="tspan66">20</tspan></text>
<text
         transform="matrix(0,1,1,0,41.76,217.34)"
         style="font-variant:normal;font-weight:normal;font-size:12px;font-family:Helvetica;-inkscape-font-specification:Helvetica;writing-mode:lr-tb;fill:#000000;fill-opacity:1;fill-rule:nonzero;stroke:none"
         id="text68"><tspan
           x="0 6.6719999"
           y="0"
           sodipodi:role="line"
           id="tspan70">40</tspan></text>
<text
         transform="matrix(0,1,1,0,41.76,292.62)"
         style="font-variant:normal;font-weight:normal;font-size:12px;font-family:Helvetica;-inkscape-font-specification:Helvetica;writing-mode:lr-tb;fill:#000000;fill-opacity:1;fill-rule:nonzero;stroke:none"
         id="text72"><tspan
           x="0 6.6719999"
           y="0"
           sodipodi:role="line"
           id="tspan74">60</tspan></text>
<text
         transform="matrix(0,1,1,0,41.76,367.9)"
         style="font-variant:normal;font-weight:normal;font-size:12px;font-family:Helvetica;-inkscape-font-specification:Helvetica;writing-mode:lr-tb;fill:#000000;fill-opacity:1;fill-rule:nonzero;stroke:none"
         id="text76"><tspan
           x="0 6.6719999"
           y="0"
           sodipodi:role="line"
           id="tspan78">80</tspan></text>
<text
         transform="matrix(0,1,1,0,41.76,439.85)"
         style="font-variant:normal;font-weight:normal;font-size:12px;font-family:Helvetica;-inkscape-font-specification:Helvetica;writing-mode:lr-tb;fill:#000000;fill-opacity:1;fill-rule:nonzero;stroke:none"
         id="text80"><tspan
           x="0 6.6719999 13.344"
           y="0"
           sodipodi:role="line"
           id="tspan82">100</tspan></text>
</g><g
       id="g84"><g
         id="g86"
         clip-path="url(#clipPath88)"><text
           transform="matrix(1,0,0,-1,106.69,416.99)"
           style="font-variant:normal;font-weight:normal;font-size:17px;font-family:Helvetica;-inkscape-font-specification:Helvetica;writing-mode:lr-tb;fill:#000000;fill-opacity:1;fill-rule:nonzero;stroke:none"
           id="text92"><tspan
             x="0 9.4519997"
             y="0"
             sodipodi:role="line"
             id="tspan94">84</tspan></text>
<text
           transform="matrix(1,0,0,-1,79.29,396.83)"
           style="font-variant:normal;font-weight:normal;font-size:17px;font-family:Helvetica;-inkscape-font-specification:Helvetica;writing-mode:lr-tb;fill:#000000;fill-opacity:1;fill-rule:nonzero;stroke:none"
           id="text96"><tspan
             x="0 5.6609998 15.113 24.565001 29.291 38.743 48.195 52.921001 68.033997"
             y="0"
             sodipodi:role="line"
             id="tspan98">(39.44 %)</tspan></text>
<text
           transform="matrix(1,0,0,-1,206.86,149.73)"
           style="font-variant:normal;font-weight:normal;font-size:17px;font-family:Helvetica;-inkscape-font-specification:Helvetica;writing-mode:lr-tb;fill:#000000;fill-opacity:1;fill-rule:nonzero;stroke:none"
           id="text100"><tspan
             x="0 9.4519997"
             y="0"
             sodipodi:role="line"
             id="tspan102">13</tspan></text>
<text
           transform="matrix(1,0,0,-1,188.92,129.57)"
           style="font-variant:normal;font-weight:normal;font-size:17px;font-family:Helvetica;-inkscape-font-specification:Helvetica;writing-mode:lr-tb;fill:#000000;fill-opacity:1;fill-rule:nonzero;stroke:none"
           id="text104"><tspan
             x="0 5.6609998 15.113 19.839001 29.291 34.016998 49.130001"
             y="0"
             sodipodi:role="line"
             id="tspan106">(6.1 %)</tspan></text>
<text
           transform="matrix(1,0,0,-1,307.03,179.85)"
           style="font-variant:normal;font-weight:normal;font-size:17px;font-family:Helvetica;-inkscape-font-specification:Helvetica;writing-mode:lr-tb;fill:#000000;fill-opacity:1;fill-rule:nonzero;stroke:none"
           id="text108"><tspan
             x="0 9.4519997"
             y="0"
             sodipodi:role="line"
             id="tspan110">21</tspan></text>
<text
           transform="matrix(1,0,0,-1,284.37,159.69)"
           style="font-variant:normal;font-weight:normal;font-size:17px;font-family:Helvetica;-inkscape-font-specification:Helvetica;writing-mode:lr-tb;fill:#000000;fill-opacity:1;fill-rule:nonzero;stroke:none"
           id="text112"><tspan
             x="0 5.6609998 15.113 19.839001 29.291 38.743 43.469002 58.582001"
             y="0"
             sodipodi:role="line"
             id="tspan114">(9.86 %)</tspan></text>
<text
           transform="matrix(1,0,0,-1,407.21,458.4)"
           style="font-variant:normal;font-weight:normal;font-size:17px;font-family:Helvetica;-inkscape-font-specification:Helvetica;writing-mode:lr-tb;fill:#000000;fill-opacity:1;fill-rule:nonzero;stroke:none"
           id="text116"><tspan
             x="0 9.4519997"
             y="0"
             sodipodi:role="line"
             id="tspan118">95</tspan></text>
<text
           transform="matrix(1,0,0,-1,384.54,438.24)"
           style="font-variant:normal;font-weight:normal;font-size:17px;font-family:Helvetica;-inkscape-font-specification:Helvetica;writing-mode:lr-tb;fill:#000000;fill-opacity:1;fill-rule:nonzero;stroke:none"
           id="text120"><tspan
             x="0 5.6609998 15.113 24.565001 29.291 38.743 43.469002 58.582001"
             y="0"
             sodipodi:role="line"
             id="tspan122">(44.6 %)</tspan></text>
</g></g><g
       id="g124"><path
         d="M 0,0 504,0 504,504 0,504 0,0"
         style="fill:none;stroke:#000000;stroke-width:0.75;stroke-linecap:round;stroke-linejoin:round;stroke-miterlimit:10;stroke-dasharray:none;stroke-opacity:1"
         id="path126"
         inkscape:connector-curvature="0" /></g></g></svg>