experiment_session_id,profile_id,profile_age,profile_gender,profile_programming_experience_time,profile_java_programming_experience_time,profile_floss_experience_time,profile_years_in_school,profile_learning_profile,knows_java,knows_javascript,knows_cpp,knows_c,knows_csharp,screen_width,screen_height
1177,,NA,NA,NA,NA,NA,NA,NA,NA,NA,NA,NA,NA,360,1097
1204,,NA,NA,NA,NA,NA,NA,NA,NA,NA,NA,NA,NA,800,1118
1215,68,B-21-36,M,C_8_I,B_4_7,A_0_3,b,v,NA,NA,NA,NA,NA,360,993
1217,,NA,NA,NA,NA,NA,NA,NA,NA,NA,NA,NA,NA,360,1097
1219,,NA,NA,NA,NA,NA,NA,NA,NA,NA,NA,NA,NA,427,940
1220,,NA,NA,NA,NA,NA,NA,NA,NA,NA,NA,NA,NA,360,1097
1226,70,B-21-36,M,A_0_3,A_0_3,A_0_3,hs,v,Y,Y,N,Y,Y,1340,652
1332,71,B-21-36,M,C_8_I,A_0_3,A_0_3,b,v,Y,Y,N,Y,Y,412,967
1352,72,B-21-36,M,C_8_I,B_4_7,B_4_7,b,t,Y,N,N,Y,N,320,1209
1361,,NA,NA,NA,NA,NA,NA,NA,NA,NA,NA,NA,NA,1008,652
1364,75,C-37-I,M,A_0_3,A_0_3,A_0_3,doo,NA,Y,N,Y,Y,N,1920,599
1366,74,NA,NA,A_0_3,A_0_3,A_0_3,NA,NA,NA,NA,NA,NA,NA,1155,617
1370,,NA,NA,NA,NA,NA,NA,NA,NA,NA,NA,NA,NA,1280,626
1371,,NA,NA,NA,NA,NA,NA,NA,NA,NA,NA,NA,NA,1366,662
1380,,NA,NA,NA,NA,NA,NA,NA,NA,NA,NA,NA,NA,1210,917
1385,76,B-21-36,M,B_4_7,A_0_3,A_0_3,b,v,N,N,Y,Y,N,1440,794
1389,78,B-21-36,M,B_4_7,A_0_3,A_0_3,b,t,N,Y,Y,Y,N,1600,626
1392,,NA,NA,NA,NA,NA,NA,NA,NA,NA,NA,NA,NA,360,1097
1393,79,A-0-20,M,C_8_I,C_8_I,B_4_7,b,t,Y,Y,Y,Y,Y,1366,662
1399,,NA,NA,NA,NA,NA,NA,NA,NA,NA,NA,NA,NA,1598,652
1402,,NA,NA,NA,NA,NA,NA,NA,NA,NA,NA,NA,NA,360,1128
1404,,NA,NA,NA,NA,NA,NA,NA,NA,NA,NA,NA,NA,360,1097
1408,81,A-0-20,M,B_4_7,A_0_3,A_0_3,NA,n,Y,N,Y,Y,Y,1366,662
1410,84,B-21-36,M,C_8_I,A_0_3,B_4_7,b,dk,Y,Y,N,N,N,1600,804
1412,88,B-21-36,M,B_4_7,B_4_7,A_0_3,b,v,Y,N,Y,Y,Y,1366,638
1413,82,B-21-36,M,C_8_I,A_0_3,B_4_7,m,v,N,Y,N,Y,Y,360,993
1416,85,B-21-36,M,B_4_7,A_0_3,A_0_3,b,t,N,N,Y,Y,N,1600,774
1421,89,B-21-36,M,B_4_7,A_0_3,A_0_3,b,dk,Y,Y,Y,Y,Y,1496,735
1422,94,B-21-36,M,B_4_7,A_0_3,A_0_3,b,t,Y,Y,N,Y,Y,1600,804
1423,,NA,NA,NA,NA,NA,NA,NA,NA,NA,NA,NA,NA,1280,918
1424,90,C-37-I,M,C_8_I,C_8_I,A_0_3,b,v,Y,N,N,N,N,1165,626
1425,,NA,NA,NA,NA,NA,NA,NA,NA,NA,NA,NA,NA,1920,950
1427,,NA,NA,NA,NA,NA,NA,NA,NA,NA,NA,NA,NA,1600,745
1428,,NA,NA,NA,NA,NA,NA,NA,NA,NA,NA,NA,NA,360,1097
1429,,NA,NA,NA,NA,NA,NA,NA,NA,NA,NA,NA,NA,1349,617
1435,,NA,NA,NA,NA,NA,NA,NA,NA,NA,NA,NA,NA,1329,654
1436,,NA,NA,NA,NA,NA,NA,NA,NA,NA,NA,NA,NA,360,1097
1437,93,B-21-36,M,C_8_I,A_0_3,A_0_3,m,v,Y,Y,N,Y,Y,1680,954
1439,99,B-21-36,M,C_8_I,B_4_7,C_8_I,b,t,Y,Y,Y,Y,N,1280,894
1442,91,NA,NA,A_0_3,A_0_3,A_0_3,NA,NA,NA,NA,NA,NA,NA,1366,662
1443,,NA,NA,NA,NA,NA,NA,NA,NA,NA,NA,NA,NA,1366,678
1446,,NA,NA,NA,NA,NA,NA,NA,NA,NA,NA,NA,NA,360,1097
1447,95,NA,NA,A_0_3,A_0_3,A_0_3,NA,NA,NA,NA,NA,NA,NA,1280,869
1448,,NA,NA,NA,NA,NA,NA,NA,NA,NA,NA,NA,NA,1566,769
1449,97,NA,NA,A_0_3,A_0_3,A_0_3,NA,NA,NA,NA,NA,NA,NA,1007,643
1450,96,B-21-36,M,C_8_I,A_0_3,A_0_3,b,v,Y,N,N,Y,Y,1600,766
1451,98,NA,NA,A_0_3,A_0_3,A_0_3,NA,NA,NA,NA,NA,NA,NA,1920,966
1452,101,B-21-36,M,C_8_I,A_0_3,A_0_3,m,t,Y,N,Y,Y,Y,414,939
1453,,NA,NA,NA,NA,NA,NA,NA,NA,NA,NA,NA,NA,2400,1213
1455,100,B-21-36,M,C_8_I,B_4_7,B_4_7,b,v,N,N,N,N,N,2400,1213
1457,,NA,NA,NA,NA,NA,NA,NA,NA,NA,NA,NA,NA,412,915
1459,,NA,NA,NA,NA,NA,NA,NA,NA,NA,NA,NA,NA,1920,626
1461,103,B-21-36,M,B_4_7,A_0_3,A_0_3,hs,t,N,Y,Y,Y,Y,1436,816
1463,102,B-21-36,M,B_4_7,B_4_7,A_0_3,m,dk,Y,Y,Y,Y,Y,2213,1219
1467,,NA,NA,NA,NA,NA,NA,NA,NA,NA,NA,NA,NA,1007,645
1468,,NA,NA,NA,NA,NA,NA,NA,NA,NA,NA,NA,NA,1440,790
1470,,NA,NA,NA,NA,NA,NA,NA,NA,NA,NA,NA,NA,1280,626
1471,104,NA,NA,A_0_3,A_0_3,A_0_3,NA,NA,NA,NA,NA,NA,NA,1600,804
1473,105,C-37-I,M,C_8_I,A_0_3,B_4_7,b,v,Y,N,N,Y,N,1353,652
1474,106,C-37-I,M,C_8_I,C_8_I,C_8_I,b,dk,Y,Y,N,Y,Y,1842,990
1476,,NA,NA,NA,NA,NA,NA,NA,NA,NA,NA,NA,NA,1920,965
1478,,NA,NA,NA,NA,NA,NA,NA,NA,NA,NA,NA,NA,360,1097
1479,,NA,NA,NA,NA,NA,NA,NA,NA,NA,NA,NA,NA,1040,908
1481,108,B-21-36,M,C_8_I,B_4_7,A_0_3,m,v,Y,N,N,N,N,1366,662
1483,107,B-21-36,M,C_8_I,B_4_7,B_4_7,m,v,Y,Y,Y,Y,N,1301,678
1484,,NA,NA,NA,NA,NA,NA,NA,NA,NA,NA,NA,NA,1920,925
1485,,NA,NA,NA,NA,NA,NA,NA,NA,NA,NA,NA,NA,360,1119
1487,109,C-37-I,M,C_8_I,B_4_7,C_8_I,m,v,Y,Y,Y,Y,N,1366,662
1489,110,B-21-36,M,B_4_7,A_0_3,A_0_3,b,v,NA,NA,NA,NA,NA,1179,524
1490,113,NA,NA,A_0_3,A_0_3,A_0_3,NA,NA,NA,NA,NA,NA,NA,1600,770
1492,,NA,NA,NA,NA,NA,NA,NA,NA,NA,NA,NA,NA,450,889
1493,111,NA,NA,A_0_3,A_0_3,A_0_3,NA,NA,NA,NA,NA,NA,NA,1296,702
1494,,NA,NA,NA,NA,NA,NA,NA,NA,NA,NA,NA,NA,1366,638
1495,112,C-37-I,M,C_8_I,C_8_I,C_8_I,m,t,Y,Y,Y,Y,N,1280,676
1498,114,B-21-36,F,C_8_I,B_4_7,A_0_3,hs,t,Y,N,N,Y,Y,1035,643
1499,,NA,NA,NA,NA,NA,NA,NA,NA,NA,NA,NA,NA,1436,816
1501,115,C-37-I,M,C_8_I,C_8_I,C_8_I,hs,t,Y,N,Y,Y,N,1600,807
1502,,NA,NA,NA,NA,NA,NA,NA,NA,NA,NA,NA,NA,640,655
1503,118,C-37-I,M,C_8_I,C_8_I,C_8_I,m,t,Y,N,Y,Y,Y,1415,626
1505,117,B-21-36,M,A_0_3,A_0_3,A_0_3,b,NA,NA,NA,NA,NA,NA,1920,941
1506,119,NA,NA,A_0_3,A_0_3,A_0_3,NA,NA,NA,NA,NA,NA,NA,1920,960
1507,,NA,NA,NA,NA,NA,NA,NA,NA,NA,NA,NA,NA,1920,974
1508,,NA,NA,NA,NA,NA,NA,NA,NA,NA,NA,NA,NA,640,681
1509,120,B-21-36,M,C_8_I,A_0_3,A_0_3,b,v,N,N,N,Y,Y,1600,766
1511,,NA,NA,NA,NA,NA,NA,NA,NA,NA,NA,NA,NA,1855,652
1512,,NA,NA,NA,NA,NA,NA,NA,NA,NA,NA,NA,NA,1366,626
1514,,NA,NA,NA,NA,NA,NA,NA,NA,NA,NA,NA,NA,1858,965
1516,121,B-21-36,M,A_0_3,A_0_3,A_0_3,b,t,Y,Y,Y,Y,N,1920,966
1517,,NA,NA,NA,NA,NA,NA,NA,NA,NA,NA,NA,NA,414,1048
1518,,NA,NA,NA,NA,NA,NA,NA,NA,NA,NA,NA,NA,1920,652
1519,122,B-21-36,M,C_8_I,C_8_I,C_8_I,m,v,Y,Y,Y,Y,Y,1579,648
1521,,NA,NA,NA,NA,NA,NA,NA,NA,NA,NA,NA,NA,360,993
1523,123,B-21-36,M,A_0_3,A_0_3,A_0_3,b,v,NA,NA,NA,NA,NA,1309,654
1524,,NA,NA,NA,NA,NA,NA,NA,NA,NA,NA,NA,NA,360,993
1526,,NA,NA,NA,NA,NA,NA,NA,NA,NA,NA,NA,NA,1366,644
1531,,NA,NA,NA,NA,NA,NA,NA,NA,NA,NA,NA,NA,1818,978
1539,124,B-21-36,M,A_0_3,A_0_3,A_0_3,b,t,Y,Y,N,Y,Y,1280,610
1542,126,C-37-I,M,C_8_I,A_0_3,A_0_3,b,t,N,Y,N,Y,Y,360,993
1543,,NA,NA,NA,NA,NA,NA,NA,NA,NA,NA,NA,NA,375,1101
1544,,NA,NA,NA,NA,NA,NA,NA,NA,NA,NA,NA,NA,1814,1218
1546,125,B-21-36,M,C_8_I,A_0_3,B_4_7,m,v,Y,N,Y,Y,N,1323,654
1547,127,C-37-I,M,C_8_I,C_8_I,B_4_7,b,v,N,N,Y,Y,Y,1366,678
1548,128,B-21-36,M,C_8_I,A_0_3,A_0_3,b,dk,N,N,Y,Y,N,1353,652
1549,,NA,NA,NA,NA,NA,NA,NA,NA,NA,NA,NA,NA,1920,950
1551,129,B-21-36,M,C_8_I,A_0_3,C_8_I,b,dk,Y,Y,Y,Y,Y,1343,1055
1554,130,NA,NA,A_0_3,A_0_3,A_0_3,NA,NA,NA,NA,NA,NA,NA,424,889
1556,,NA,NA,NA,NA,NA,NA,NA,NA,NA,NA,NA,NA,1428,949
1557,132,C-37-I,M,C_8_I,A_0_3,C_8_I,b,t,N,N,N,N,N,360,1097
1558,131,NA,NA,A_0_3,A_0_3,A_0_3,NA,NA,NA,NA,NA,NA,NA,375,1101
1559,,NA,NA,NA,NA,NA,NA,NA,NA,NA,NA,NA,NA,1536,734
1561,,NA,NA,NA,NA,NA,NA,NA,NA,NA,NA,NA,NA,360,993
1563,133,B-21-36,M,B_4_7,B_4_7,A_0_3,b,v,Y,Y,N,Y,Y,360,993
1565,134,NA,F,A_0_3,NA,A_0_3,m,v,N,Y,N,N,N,1313,654
1569,135,B-21-36,NA,B_4_7,A_0_3,A_0_3,b,NA,NA,NA,NA,NA,NA,1920,572
1571,136,NA,NA,A_0_3,A_0_3,A_0_3,NA,NA,NA,NA,NA,NA,NA,1600,780
1576,,NA,NA,NA,NA,NA,NA,NA,NA,NA,NA,NA,NA,1920,970
1579,137,B-21-36,M,C_8_I,A_0_3,A_0_3,b,dk,N,N,Y,Y,N,360,993
1580,,NA,NA,NA,NA,NA,NA,NA,NA,NA,NA,NA,NA,360,1097
1581,,NA,NA,NA,NA,NA,NA,NA,NA,NA,NA,NA,NA,1920,965
1585,138,C-37-I,M,C_8_I,C_8_I,C_8_I,m,v,Y,N,N,N,N,1366,638
1589,139,B-21-36,M,B_4_7,A_0_3,A_0_3,b,t,N,Y,N,Y,Y,1366,634
1592,,NA,NA,NA,NA,NA,NA,NA,NA,NA,NA,NA,NA,375,1020
1593,140,B-21-36,M,C_8_I,A_0_3,A_0_3,b,dk,Y,N,N,Y,Y,1920,1070
1594,141,C-37-I,M,C_8_I,A_0_3,A_0_3,m,t,Y,N,N,N,N,1503,622
1609,,NA,NA,NA,NA,NA,NA,NA,NA,NA,NA,NA,NA,1366,662
1610,144,C-37-I,M,C_8_I,B_4_7,C_8_I,b,t,Y,Y,Y,Y,N,1241,627
1614,142,B-21-36,M,C_8_I,C_8_I,C_8_I,m,t,Y,Y,Y,Y,N,1043,652
1616,143,B-21-36,M,C_8_I,A_0_3,A_0_3,b,t,Y,Y,Y,Y,Y,1920,901
1627,145,B-21-36,M,C_8_I,B_4_7,C_8_I,m,t,Y,Y,Y,Y,Y,1366,662
1628,146,B-21-36,M,A_0_3,A_0_3,A_0_3,b,n,Y,Y,Y,Y,Y,2562,1336
1631,147,C-37-I,M,C_8_I,B_4_7,A_0_3,b,dk,Y,Y,Y,Y,Y,1920,964
1633,148,B-21-36,M,C_8_I,B_4_7,A_0_3,m,t,Y,N,Y,Y,N,1510,923
1634,,NA,NA,NA,NA,NA,NA,NA,NA,NA,NA,NA,NA,1024,653
1637,,NA,NA,NA,NA,NA,NA,NA,NA,NA,NA,NA,NA,375,1020
1638,,NA,NA,NA,NA,NA,NA,NA,NA,NA,NA,NA,NA,1600,770
1639,,NA,NA,NA,NA,NA,NA,NA,NA,NA,NA,NA,NA,1174,722
1646,,NA,NA,NA,NA,NA,NA,NA,NA,NA,NA,NA,NA,514,733
1658,,NA,NA,NA,NA,NA,NA,NA,NA,NA,NA,NA,NA,412,837
1660,,NA,NA,NA,NA,NA,NA,NA,NA,NA,NA,NA,NA,360,1012
1661,150,NA,NA,A_0_3,A_0_3,A_0_3,NA,NA,NA,NA,NA,NA,NA,1366,626
1663,,NA,NA,NA,NA,NA,NA,NA,NA,NA,NA,NA,NA,375,1020
1670,151,C-37-I,M,C_8_I,C_8_I,B_4_7,hs,t,Y,Y,Y,Y,N,768,954
1674,,NA,NA,NA,NA,NA,NA,NA,NA,NA,NA,NA,NA,412,967
1675,,NA,NA,NA,NA,NA,NA,NA,NA,NA,NA,NA,NA,1366,662
1676,152,NA,NA,A_0_3,A_0_3,A_0_3,NA,NA,NA,NA,NA,NA,NA,1920,950
1697,153,B-21-36,M,B_4_7,A_0_3,A_0_3,doo,v,N,N,N,Y,N,1920,572
1698,,NA,NA,NA,NA,NA,NA,NA,NA,NA,NA,NA,NA,360,1012
1702,154,B-21-36,M,A_0_3,A_0_3,A_0_3,hs,t,Y,N,N,Y,Y,1680,932
1711,155,B-21-36,M,C_8_I,B_4_7,A_0_3,m,v,Y,Y,Y,Y,Y,1730,626
1714,157,B-21-36,M,C_8_I,B_4_7,A_0_3,b,t,Y,N,Y,Y,N,1920,964
1715,158,B-21-36,M,B_4_7,A_0_3,A_0_3,b,v,Y,Y,Y,Y,Y,1535,758
1716,159,B-21-36,M,C_8_I,A_0_3,A_0_3,b,dk,N,N,N,Y,N,1675,626
1717,156,NA,NA,A_0_3,A_0_3,A_0_3,NA,NA,NA,NA,NA,NA,NA,1920,925
1718,,NA,NA,NA,NA,NA,NA,NA,NA,NA,NA,NA,NA,1920,572
1723,,NA,NA,NA,NA,NA,NA,NA,NA,NA,NA,NA,NA,1419,801
1724,,NA,NA,NA,NA,NA,NA,NA,NA,NA,NA,NA,NA,412,915
1726,,NA,NA,NA,NA,NA,NA,NA,NA,NA,NA,NA,NA,360,993
1732,160,B-21-36,M,C_8_I,A_0_3,C_8_I,hs,dk,N,Y,Y,Y,Y,1600,770
1738,163,C-37-I,M,C_8_I,A_0_3,A_0_3,m,n,N,Y,Y,Y,Y,1360,662
1751,164,B-21-36,M,C_8_I,A_0_3,A_0_3,hs,t,Y,N,Y,Y,N,1920,652
1755,166,NA,NA,A_0_3,A_0_3,A_0_3,NA,NA,NA,NA,NA,NA,NA,1365,572
1756,165,C-37-I,M,C_8_I,C_8_I,A_0_3,b,t,Y,Y,N,Y,N,1570,805
1758,,NA,NA,NA,NA,NA,NA,NA,NA,NA,NA,NA,NA,1007,644
1760,,NA,NA,NA,NA,NA,NA,NA,NA,NA,NA,NA,NA,1440,751
1767,167,NA,NA,A_0_3,A_0_3,A_0_3,NA,NA,NA,NA,NA,NA,NA,1366,572
1778,168,B-21-36,M,B_4_7,B_4_7,A_0_3,b,v,Y,Y,Y,Y,Y,1920,970
1781,169,B-21-36,M,C_8_I,A_0_3,A_0_3,b,t,N,Y,N,Y,Y,1280,918
1785,,NA,NA,NA,NA,NA,NA,NA,NA,NA,NA,NA,NA,360,1097
1787,170,C-37-I,M,C_8_I,C_8_I,B_4_7,b,v,N,N,N,N,N,1280,626
1809,,NA,NA,NA,NA,NA,NA,NA,NA,NA,NA,NA,NA,1325,652
1810,,NA,NA,NA,NA,NA,NA,NA,NA,NA,NA,NA,NA,1338,599
1813,171,C-37-I,M,C_8_I,A_0_3,A_0_3,m,n,N,N,N,N,N,1107,725
1851,172,C-37-I,M,C_8_I,A_0_3,B_4_7,m,NA,Y,Y,Y,Y,Y,1920,626
1855,174,A-0-20,M,B_4_7,B_4_7,A_0_3,hs,t,Y,Y,Y,Y,Y,1886,572
1865,,NA,NA,NA,NA,NA,NA,NA,NA,NA,NA,NA,NA,1680,572
1866,,NA,NA,NA,NA,NA,NA,NA,NA,NA,NA,NA,NA,412,915
1868,,NA,NA,NA,NA,NA,NA,NA,NA,NA,NA,NA,NA,1440,803
1869,,NA,NA,NA,NA,NA,NA,NA,NA,NA,NA,NA,NA,1920,599
1877,,NA,NA,NA,NA,NA,NA,NA,NA,NA,NA,NA,NA,1920,572
1878,,NA,NA,NA,NA,NA,NA,NA,NA,NA,NA,NA,NA,1282,711
1879,175,C-37-I,M,A_0_3,A_0_3,A_0_3,b,t,N,N,Y,Y,Y,412,993
1893,,NA,NA,NA,NA,NA,NA,NA,NA,NA,NA,NA,NA,1280,890
1897,176,B-21-36,M,B_4_7,A_0_3,A_0_3,hs,v,Y,Y,N,N,N,1366,638
1900,177,B-21-36,M,C_8_I,A_0_3,A_0_3,b,NA,Y,N,Y,Y,N,1440,626
1910,,NA,NA,NA,NA,NA,NA,NA,NA,NA,NA,NA,NA,1358,883
1914,178,B-21-36,M,C_8_I,C_8_I,C_8_I,b,t,Y,N,Y,Y,N,1366,626
1919,179,B-21-36,M,C_8_I,A_0_3,A_0_3,b,dk,N,N,Y,Y,Y,1600,761
1921,180,NA,NA,A_0_3,A_0_3,A_0_3,NA,NA,NA,NA,NA,NA,NA,1920,974
1930,181,C-37-I,M,C_8_I,B_4_7,C_8_I,m,v,Y,N,Y,Y,N,1366,638
1932,182,B-21-36,M,C_8_I,C_8_I,C_8_I,b,v,Y,Y,Y,Y,N,1362,663
1954,183,B-21-36,M,C_8_I,B_4_7,A_0_3,doo,t,Y,N,Y,Y,N,1920,974
1962,184,B-21-36,M,B_4_7,A_0_3,A_0_3,b,dk,Y,Y,N,Y,Y,1280,703
1991,185,B-21-36,M,B_4_7,A_0_3,A_0_3,hs,dk,N,N,Y,Y,N,1139,926
1994,186,C-37-I,M,C_8_I,A_0_3,A_0_3,b,t,N,N,N,N,N,1920,960
1998,195,C-37-I,M,C_8_I,C_8_I,C_8_I,b,v,Y,N,Y,Y,Y,1920,974
2003,196,C-37-I,M,C_8_I,C_8_I,A_0_3,m,dk,Y,N,N,Y,N,1261,713
2025,,NA,NA,NA,NA,NA,NA,NA,NA,NA,NA,NA,NA,980,954
2033,197,B-21-36,M,C_8_I,A_0_3,A_0_3,b,t,N,N,Y,Y,Y,1920,950
2040,198,B-21-36,M,A_0_3,A_0_3,A_0_3,doo,v,Y,Y,Y,Y,N,1920,652
2057,199,C-37-I,M,C_8_I,A_0_3,C_8_I,doo,v,N,N,Y,Y,N,1440,826
2074,200,NA,M,A_0_3,A_0_3,A_0_3,NA,NA,NA,NA,NA,NA,NA,1920,1012
2091,201,B-21-36,M,C_8_I,A_0_3,C_8_I,m,t,Y,Y,Y,Y,Y,1855,917
2102,203,B-21-36,M,C_8_I,A_0_3,C_8_I,b,t,Y,N,Y,Y,Y,1366,675
2103,,NA,NA,NA,NA,NA,NA,NA,NA,NA,NA,NA,NA,320,1371
2115,204,NA,NA,A_0_3,A_0_3,A_0_3,NA,NA,NA,NA,NA,NA,NA,1451,740
2123,205,B-21-36,F,A_0_3,A_0_3,B_4_7,b,n,N,N,N,N,N,1366,605
2125,,NA,NA,NA,NA,NA,NA,NA,NA,NA,NA,NA,NA,1699,572
2218,,NA,NA,NA,NA,NA,NA,NA,NA,NA,NA,NA,NA,1920,926
2232,206,B-21-36,NA,C_8_I,A_0_3,A_0_3,hs,t,N,N,Y,Y,Y,1280,664
2311,207,B-21-36,M,C_8_I,C_8_I,A_0_3,b,NA,NA,NA,NA,NA,NA,360,1097
2460,,NA,NA,NA,NA,NA,NA,NA,NA,NA,NA,NA,NA,1871,652
2520,,NA,NA,NA,NA,NA,NA,NA,NA,NA,NA,NA,NA,968,916
2573,,NA,NA,NA,NA,NA,NA,NA,NA,NA,NA,NA,NA,360,1019
