vote_id,vote_comment_id,practice,alias,comments,mentions_no_difference,mentions_likes_whitespace,mentions_variable_naming,mentions_visual_smoothness,mentions_likes_more_compact_visualizations,explained_decision_process,mentions_adherence_to_known_java_conventions,comment_contains_critics_to_survey,emotional_content
832,197,P.04,P.04.1,"You read the line, you know what it is doing.",N,,,,,N,,,
1049,392,P.04,P.04.1,Códigos com linhas longas demais são difíceis de ler e mapear.,N,,,,,Y,,,
1054,396,P.04,P.04.1,"Prefiro ajustar meu editor de texto para me apresentar o código quebrado, ou não.",N,,,,,Y,,,
1229,547,P.04,P.04.1,"When just reading the test code, I don't really care that the methods throw exceptions (I just care about the logic of the test), so they're safe to hide off of the right side of the screen instead of taking up prime vertical real estate.",N,,,,,Y,,,
1485,767,P.04,P.04.1,"oni dividu tre longajn liniojn. la longeco de linioj dependas. 
la malnovegan 80 oni jam ne uzu, ĉar nuntempaj monitoroj estas pli grandaj. 
tamen tro longajn oni ne uzu",N,,,,,Y,,,
1523,807,P.04,P.04.1,cgnbfg,N,,,,,N,,,
1573,851,P.04,P.04.1,"me parece que o ""throws"" faz parte da assinatura do método, então faz mais sentido ficar na mesma linha.",N,,,,,Y,,,
1617,894,P.04,P.04.1,Mais legível pelo mesmo motivo do primeiro código.,N,,,,,N,,,
1644,921,P.04,P.04.1,Quebra de linha padronizada fazendo com que o trecho possa ser visualizado por inteiro ajuda na legibilidade.,N,,,,,Y,,,
941,299,P.04,P.04.2,"Javeiros adoram quebrar linha, mas não vejo vantagem nesse caso. E não tenho essa prática",N,,,,,N,,,
961,318,P.04,P.04.2,leito de uma unica vez,N,,,,,N,,,
1104,441,P.04,P.04.2,"Prefiro sempre que possível deixar a declaração na mesma linha, acho mais fácil sua leitura, principalmente quando a lista de atributos é muito grande.",N,,,,,Y,,,
1212,533,P.04,P.04.2,Constantes na mesma linha facilitam a leitura,N,,,,,N,,,
1302,614,P.04,P.04.2,"horizontal scrolling is bad, you should feel bad",N,,,,,Y,,,
1309,623,P.04,P.04.2,"O código ruim possui quebras de linha arbitrárias, que tornam o código desnecessariamente vertical, e separam a atribuição de seu valor. Tão ruim quanto separar sujeito de verbo com vírgula.",N,,,,,Y,,,
1351,658,P.04,P.04.2,"Less lines, more information on screen. Monitors nowadays have a 16:9 aspect ratio, let's make a good use of it. Swiveling monitors, loved by every programmer and their dogs, aren't widespread enough.",N,,,,,Y,,,
1371,675,P.04,P.04.2,"Right handled by multiple windows better; in this case it's not as readable, but if you were given a windows that could only display 80 characters before needing to scroll, it would be way better.",N,,,,,Y,,,
1431,721,P.04,P.04.2,"Prefiro manter em uma linha sempre que possível, mesmo que as vezes ultrapasse o limite de 80 colunas.",N,,,,,Y,,,
1515,799,P.04,P.04.2,"desde que eu esteja utilizando um monitor minimamente grande, 'oneliners' sao mais legiveis que multi linha",N,,,,,Y,,,
1519,803,P.04,P.04.2,O 2 cabe melhor no editor sem quebrar linha,N,,,,,Y,,,
1555,833,P.04,P.04.2,"levando em consideração que para programar é bom ter um monitor com uma tela um pouco maior e com os widescreen de hoje em dia, não vejo necessidade de fazer tanta quebra de linha.",N,,,,,Y,,,
1572,850,P.04,P.04.2,"em geral coloco o ""new"" na mesma linha do ""="", a não ser que extrapole muito a largura, o que não parece ser o caso aqui.",N,,,,,Y,,,
1595,873,P.04,P.04.2,"O outro tem um código muito longo. No caso de variáveis estáticas, prefiro uma variável por linha.",N,,,,,Y,,,
1630,907,P.04,P.04.2,Melhor reconhecimento dos identificadores.,N,,,,,N,,,
1118,451,P.04,P.04.3,"Fica confuse esse tipo de quebra de linha:
64                 GrapeRootRepositorySystemSessionAutoConfigurationTests
65                 .this.session,",N,,,,,Y,,,
1135,468,P.04,P.04.3,Uma referência que começa em uma linha e termina em outra pode confundir o leitor.,N,,,,,Y,,,
1175,501,P.04,P.04.3,os dois tem a mesma legibilidade pra mim,Y,,,,,N,,,
1507,791,P.04,P.04.3,"quebra na execução dos comandos melhor. ex:
38.  new GrapeRootRepositorySystemSessionAutoConfiguration()
39             .apply(this.session, this.repositorySystem);",N,,,,,Y,,,
1587,865,P.04,P.04.3,I don't think a code that has lots of line breaks in the middle of the instructions is better than long lines with no line breaks. Indenting and de-indenting just because of these breaks are much worse than no breaks.,N,,,,,Y,,,
