vote_id,vote_comment_id,practice,alias,comments,mentions_no_difference,mentions_likes_whitespace,mentions_variable_naming,mentions_visual_smoothness,mentions_likes_more_compact_visualizations,explained_decision_process,mentions_adherence_to_known_java_conventions,comment_contains_critics_to_survey,emotional_content
966,320,P.12,P.12.1,O alinhamento dos parâmetros ajuda a visualizar as instruções como um bloco único.,N,,,,,Y,,,
976,328,P.12,P.12.1,"frescura, mas alinhado ficou um pouco melhor, nada que impacta-se no cotidiano",N,,,,,Y,,,
1075,412,P.12,P.12.1,Não percebi diferença nos códigos.,Y,,,,,N,,,
1134,466,P.12,P.12.1,A mesma situação do exemplo anterior. O código não precisa se parecer com estrutura de dados.,N,,,,,Y,,,
1149,481,P.12,P.12.1,Não vejo tanta diferença.,Y,,,,,N,,,
1181,506,P.12,P.12.1,"Novamente, na minha opinião possuem legibilidade equivalentes",Y,,,,,N,,,
1316,626,P.12,P.12.1,Código-fonte não é planilha de Excel: as coisas não precisam ser alinhadas como se fossem células numa tabela.,N,,,,,Y,,,
1509,793,P.12,P.12.1,tabulação ajuda,N,,,,,Y,,,
1536,820,P.12,P.12.1,Mi lernas ne zorgi pri interspaco,N,,,,,Y,,,
1604,882,P.12,P.12.1,O outro embaralha as letras e dificulta minha leitura.,N,,,,,Y,,,
1659,936,P.12,P.12.1,Alinhamento desnecessário do outro exemplo,N,,,,,Y,,,
833,198,P.12,P.12.2,Sizes are never the same.,N,,,,,N,,,
887,237,P.12,P.12.2,"Diferente do outro exemplo, como o espaçamento foi pequeno, ele ajudou sim a tornar o código mais legível, e não simplesmente desprender um argumento do resto da chamada.",N,,,,,Y,,,
1072,413,P.12,P.12.2,"O código está organizado, por exemplo, os parentesis e os comandos new estão alinhados.",N,,,,,Y,,,
1234,551,P.12,P.12.2,Same reason as the previous question,N,,,,,N,,,
1324,633,P.12,P.12.2,Não gosto de separar a entrada de parâmetros do nome do método.,N,,,,,Y,,,
1481,763,P.12,P.12.2,"la dekstra (sen spacetoj) estas pli ofta, pli kutima, do ĝi legeblas pli facile",N,,,,,N,,,
863,217,P.12,P.12.3,The alignment is important.,N,,,,,N,,,
884,235,P.12,P.12.3,"O espaçamento, nesse caso, não ajudou a leitura.",N,,,,,Y,,,
1078,416,P.12,P.12.3,Idem questão 1. Existe alinhamento entre comandos. Exemplo: os comandos map estão um abaixo do outro.,N,,,,,Y,,,
1111,444,P.12,P.12.3,A identação aumenta a ligibilidade significativamente e dá um ar mais organizado,N,,,,,Y,,,
1132,465,P.12,P.12.3,Vários espaços entre a vírgula e o parâmetro não ajudam na leitura e não representam a realidade da maioria dos indentadores.,N,,,,,Y,,,
1230,550,P.12,P.12.3,Because I think it isn't worth the effort of aligning the code in the second code snippet.,N,,,,,Y,,,
1418,709,P.12,P.12.3,La taboj en la dua kodero estas ege malbona ideo kiu ne helpas legi la koderon.,N,,,,,N,,,
1430,720,P.12,P.12.3,"Gosto de manter indentação para linhas de código semelhantes seguidas, como inicializações e atribuições.",N,,,,,Y,,,
1560,838,P.12,P.12.3,"Sinceramente, não me importo com coisas ""alinhadas"" no código",N,,,,,Y,,,
1602,879,P.12,P.12.3,Me parece mas legível.,N,,,,,N,,,
1633,910,P.12,P.12.3,trechos dentro de funções/switches/ifs aninhados deixam o código mais claro,N,,,,,Y,,,
