vote_id,vote_comment_id,practice,alias,comments,mentions_no_difference,mentions_likes_whitespace,mentions_variable_naming,mentions_visual_smoothness,mentions_likes_more_compact_visualizations,explained_decision_process,mentions_adherence_to_known_java_conventions,comment_contains_critics_to_survey,emotional_content
1322,631,P.03,P.03.3,Espaçamento,N,,,,,N,,,
1544,822,P.06,P.06.2,shorter,N,,,,,N,,,
1511,795,P.09,P.09.1,atribuição melhor,N,,,,,N,,,
1548,825,P.09,P.09.2,Os códigos são semelhantes,Y,,,,,N,,,
1115,448,P.01,P.01.1,Fica mais claro olhar o que está dentro do if caso esteja em outra linha,N,,,,,Y,,,
1139,471,P.01,P.01.1,O segundo exemplo segue mais o estilo Java de indentação e utilização de chaves e parênteses.,N,,,,,Y,,,
1162,492,P.01,P.01.1,"Apesar de eu não usar esse estilo de codificação, separar o codigo em linhas diferentes melhora a visualização",N,,,,,Y,,,
1178,502,P.01,P.01.1,Após o uso do if eu ja estou olhando pra linha abaixo.,N,,,,,Y,,,
1252,565,P.01,P.01.1,Mais facil visualizar o que será feito.,N,,,,,N,,,
1350,656,P.01,P.01.1,"Pli legebla, la dekstra.  Mi ĉiam scias kie trovi la korpon de la ""if"".",N,,,,,Y,,,
1357,663,P.01,P.01.1,"Não sou muito fã de codigo ""tudo na mesma linha""",N,,,,,N,,,
1460,747,P.01,P.01.1,"if com return one-liner preferivel sem uso de chaves.

if com outra instrução poderia ficar em outra linha.",N,,,,,Y,,,
1473,755,P.01,P.01.1,Os comando condicionais sempre que estão em uma linha facilitam a legibilidade,N,,,,,Y,,,
1521,805,P.01,P.01.1,2 mais limpo,N,,,,,N,,,
1628,905,P.01,P.01.1,Identificação clara dos escopos/blocos de sentenças.,N,,,,,Y,,,
1646,923,P.01,P.01.1,O bloco de instruções é mais legível se separado do teste.,N,,,,,Y,,,
831,196,P.01,P.01.2,You can see where the code is going.,N,,,,,Y,,,
854,209,P.01,P.01.2,Porque ajuda na economia de processamento.,N,,,,,N,,,
919,275,P.01,P.01.2,I prefer a line break after the if.,N,,,,,Y,,,
1076,415,P.01,P.01.2,Acredito que manter um padrão visual auxilia a percepção e identificação dos códigos.,N,,,,,Y,,,
1138,472,P.01,P.01.2,O trecho à direita é previsível a respeito do início e fim de cada bloco de comandos.,N,,,,,Y,,,
1151,483,P.01,P.01.2,Tanto faz.,Y,,,,,N,,,
1215,536,P.01,P.01.2,Identação.,N,,,,,N,,,
1264,577,P.01,P.01.2,"Use single-line conditionals in your personal code, not in code you share with others :)",N,,,,,N,,,
1296,608,P.01,P.01.2,proper indendation matters.,N,,,,,N,,,
1325,634,P.01,P.01.2,Melhor identado,N,,,,,N,,,
1381,683,P.01,P.01.2,"almost the same to me, for very short instructions like ""return result;"" does not really make a difference",Y,,,,,N,,,
1632,909,P.01,P.01.2,if e else alinhados é mais legível,N,,,,,N,,,
900,247,P.01,P.01.3,"Fiquei dividido, mas prefiro colocar o bloco de código em outra linha.",N,,,,,Y,,,
1314,624,P.01,P.01.3,Não é necessário explicar nada :) a primeira versão é simplesmente horrível.,N,,,,,N,,,
1349,655,P.01,P.01.3,La dekstra estas pli facile rapide legebla.,N,,,,,N,,,
1358,664,P.01,P.01.3,a organizacao do IF está melhor,N,,,,,N,,,
1468,750,P.01,P.01.3,if body on the same line clutters the code.,N,,,,,Y,,,
1479,761,P.01,P.01.3,"Particularmente, não sou adepto a blocos if's com condição e bloco de instruções na mesma linha.",N,,,,,Y,,,
1634,911,P.01,P.01.3,If else alinhados são mais claros,N,,,,,N,,,
852,207,P.02,P.02.1,"Por organização do código e em alguns casos, um mesmo bloco de instruções caibam na tela.",N,,,,,Y,,,
880,231,P.02,P.02.1,opção 1 esta fora do padrão javadoc,N,,,,,Y,,,
926,292,P.02,P.02.1,"Line breaks before ""{"" are nice, but you must know when to use it. PHP's PSR-2 is a nice style for me.",N,,,,,Y,,,
1097,433,P.02,P.02.1,posicionamento do { deve estar junto do bloco de codigo,N,,,,,Y,,,
1113,446,P.02,P.02.1,"Com certeza a definição de escopo { e } devem estar alinhados. 
Existem teclas de atalho como CTRL { e CTRL } que vão do início ao fim do escopo que não pode ser usado quando os colchetes estão desalinhados",N,,,,,Y,,,
1301,613,P.02,P.02.1,having braces on a separate line looks like meaningless information,N,,,,,Y,,,
1341,648,P.02,P.02.1,"Fico com este codigo pois é o estilo de formatação que costumo usar e prefiro, mas esperava que uma pesquisa sobre code readability fosse focar mesmo no estilo de código, não formatação.",N,,,,,Y,,,
1356,662,P.02,P.02.1,Gostei do mais compacto,N,,,,,Y,,,
1367,672,P.02,P.02.1,I like the open bracket on the same line.  I would introduce more arbitrary whitespace if I were trying to make the code more segmented.,N,,,,,Y,,,
1489,769,P.02,P.02.1,"krampoj metitaj simetrie, ĉiu je la sama nivelo estas laŭ mi pli legeblaj.
tamen la varianto, kiam la malferma estas fin-linie estas pli ofta :(",N,,,,,Y,,,
1525,809,P.02,P.02.1,Apologies to X&R but the one true brace style is unreadable.,N,,,,,N,,,
1603,881,P.02,P.02.1,Aprendi a programar nessa estrutura.,N,,,,,Y,,,
1629,906,P.02,P.02.1,Melhor identificação dos escopos/blocos de sentenças.,N,,,,,Y,,,
853,208,P.02,P.02.2,Organização do código.,N,,,,,N,,,
861,216,P.02,P.02.2,Mi preferas { samlinie ol la rezervitvorto,N,,,,,Y,,,
877,228,P.02,P.02.2,opção 2 esta fora do padrão javadoc,N,,,,,Y,,,
1159,486,P.02,P.02.2,Melhor ainda se o segundo tivesse os { e } no mesmo nível e não identado de forma diferente.,N,,,,,N,,,
1225,545,P.02,P.02.2,"Pretty minor, but having a code layout style that's expected for the language makes the code on the left slightly easier to scan. The code on the right made me backtrack first, but was pretty easy to read after that initial overhead.",N,,,,,Y,,,
1254,567,P.02,P.02.2,"Melhor para visualizar o bloco entre cada {}, gosto da filosofica kernel coding",N,,,,,Y,,,
1285,598,P.02,P.02.2,The spacing is much better,N,,,,,N,,,
1545,823,P.02,P.02.2,I just prefer that curly bracket placement,N,,,,,N,,,
1585,863,P.02,P.02.2,cade em um tela,N,,,,,N,,,
1589,867,P.02,P.02.2,"I don't see any sense in breaking the line before the opening-brackets in the middle of the functions/methods, it only confuses me. A LOT.",N,,,,,Y,,,
1591,869,P.02,P.02.2,Escolhi com base na identação. A identação que não selecionei não é usual nos padrões que conheço.,N,,,,,Y,,,
1624,901,P.02,P.02.2,Prefiro abertura de { e fechamento } em linhas distintas.,N,,,,,N,,,
1631,908,P.02,P.02.2,Melhor reconhecimento dos inícios dos escopos/blocos de sentenças.,N,,,,,Y,,,
933,289,P.02,P.02.3,Os colchetes abaixo da declaração da função e de instruções 'if' não tem muito impacto na legibilidade,N,,,,,N,,,
934,293,P.02,P.02.3,See PSR-2,N,,,,,Y,,,
974,326,P.02,P.02.3,identação,N,,,,,N,,,
1033,377,P.02,P.02.3,Doesn't matter the place of brackets for me. Is the same.,Y,,,,,N,,,
1136,469,P.02,P.02.3,Trecho à direita parece ter um aproveitamento melhor do espaço e uma melhor legibilidade.,N,,,,,Y,,,
1165,490,P.02,P.02.3,gosto de espaços entre as linhas,N,,,,,N,,,
1361,667,P.02,P.02.3,"O da esquerda, mas nesse caso por simplesmente ser o tipo de formatação que prefiro, não acho que a escolha de onde vão as chaves deva influenciar tanto leitura de código.",N,,,,,Y,,,
1373,677,P.02,P.02.3,"Easier to line up scoping braces, but honestly I'm used to reading both styles",N,,,,,Y,,,
1472,754,P.02,P.02.3,O respeito a estrutura dos comandos condicionais facilita a legibilidade,N,,,,,Y,,,
1492,772,P.02,P.02.3,"demando pri krampoj jam estis en ĉi tiu opiniaro. 
al mi pli plaĉas simetria varianto (ĉiu krampo estas sola en sia linio)
sed pli ofta estas la varianto, kiam la malferma estas fine de alia linio",N,,,,,Y,,,
1532,816,P.02,P.02.3,Bloco {} funciona como linha. Logo começa na próxima linha.,N,,,,,Y,,,
1537,821,P.02,P.02.3,Egiptia bracela stilo 4 lyfe,N,,,,,N,,,
1554,832,P.02,P.02.3,as chaves na linha de baixo à declaração facilitam a leitura,N,,,,,N,,,
1609,887,P.02,P.02.3,Nova linha para abertura de chave.,N,,,,,N,,,
1643,920,P.02,P.02.3,Abertura de blocos de função com chaves iniciando na primeira coluna deixam o bloco mais legível.,N,,,,,N,,,
850,206,P.03,P.03.1,Separa melhor cada grupo de código.,N,,,,,N,,,
1109,442,P.03,P.03.1,As linhas entre os blocos aumentam a legibilidade do código,N,,,,,N,,,
1123,455,P.03,P.03.1,Espaçamento ajuda muito,N,,,,,N,,,
1211,532,P.03,P.03.1,A quebra de linhas ajudou na leitura,N,,,,,N,,,
1292,605,P.03,P.03.1,It's easier of the eye to focus on what you're reading.,N,,,,,Y,,,
1318,627,P.03,P.03.1,"O espaçamento, apesar de funcionalmente não mudar nada, ajuda na leitura",N,,,,,Y,,,
1360,666,P.03,P.03.1,"Sem dúvidas o código da esquerda, a formatação deixa claro a separação entre funcionalidades.",N,,,,,Y,,,
1454,742,P.03,P.03.1,O Código parece mais limpo e de mais fácil leitura por causa de seus espaçamentos.,N,,,,,Y,,,
1516,800,P.03,P.03.1,"idealmente, codigo relacionado fica mais legivel junto (sem separacao de linha).",N,,,,,Y,,,
1522,806,P.03,P.03.1,1 porque os pulos de linha ajudam,N,,,,,N,,,
1571,849,P.03,P.03.1,Prefiro o código onde os if's e blocos de código são separados por uma linha em branco.,N,,,,,N,,,
1586,864,P.03,P.03.1,I think white lines in the right places are much better than no white lines.,N,,,,,N,,,
1636,913,P.03,P.03.1,espaçamento entre blocos lógicos facilitar entendimento,N,,,,,N,,,
1665,942,P.03,P.03.1,Too many blank lines!,N,,,,,N,,,
855,210,P.03,P.03.2,Código mais limpo pulando linha.,N,,,,,N,,,
896,244,P.03,P.03.2,O branco das linhas adicionadas ajuda ao analisar o código.,N,,,,,N,,,
935,295,P.03,P.03.2,"Também tenho a prática de deixar uma linha em branco em determinados casos como esse. Mesmo se tratando de um método apenas, ele executa vários trechos distintos entre eles.",N,,,,,Y,,,
970,323,P.03,P.03.2,"quebra de conjunto de informacao deixa mais clara a ideia,fora que pode ajudar na parte de fatoracao",N,,,,,Y,,,
985,338,P.03,P.03.2,Melhor identado e com espaços de uma linha para a outra,N,,,,,N,,,
1095,431,P.03,P.03.2,O fato do desenvolvedor deixar algumas linhas em branco no código facilita a na minha opinião a leitura e entendimento do código por mais extenso que seja.,N,,,,,N,,,
1168,493,P.03,P.03.2,gosto de espaços entre as linhas.,N,,,,,N,,,
1310,619,P.03,P.03.2,Separate code parts,N,,,,,Y,,,
1354,661,P.03,P.03.2,Blank lines when properly used help to visualize logic blocks in a method that is unfit to be divided in more methods.,N,,,,,Y,,,
1547,824,P.03,P.03.2,Os códigos sao semelhantes,Y,,,,,N,,,
1583,861,P.03,P.03.2,visualmente é o melhor,N,,,,,N,,,
1663,940,P.03,P.03.2,Adding some blank lines in between makes code much readable and easy on the eye. But leaving too many blank lines in between is also not pretty.,N,,,,,Y,,,
856,211,P.03,P.03.3,Estrutura das instruções mais legível,N,,,,,N,,,
1116,449,P.03,P.03.3,"Seria interessante separar trechos de código com quebras de linhas, como é feito no primeiro exemplo",N,,,,,N,,,
1169,494,P.03,P.03.3,Espaços em branco nem sempre facilitam a visualização,N,,,,,N,,,
1323,632,P.03,P.03.3,As linhas adicionais dão mais legibilidade,N,,,,,N,,,
1352,657,P.03,P.03.3,"Ju pli da spaco, des pli legebla.",N,,,,,N,,,
1359,665,P.03,P.03.3,"Nao notei muita diferenca, fui pelo mais compacto",N,,,,,Y,,,
1470,752,P.03,P.03.3,"The version with empty lines seems better readable, but the empty line after the last statement of each method are awful.",N,,,,,N,,,
1496,780,P.03,P.03.3,Mi ĉiam voĉdonas por dekstraj provaĵoj,N,,,,,N,,,
1520,804,P.03,P.03.3,1 porque os pulos de linha ajudam a separar conjuntos de codigo,N,,,,,Y,,,
1528,812,P.03,P.03.3,Empty lines separate related sequences of statements and so indicate a change of topic.,N,,,,,Y,,,
1550,830,P.03,P.03.3,Os códigos são semelhantes,Y,,,,,N,,,
1620,897,P.03,P.03.3,"Este é mais legível pois as linhas de código estão agrupadas, dando ideia de relação entre elas.",N,,,,,Y,,,
832,197,P.04,P.04.1,"You read the line, you know what it is doing.",N,,,,,N,,,
1049,392,P.04,P.04.1,Códigos com linhas longas demais são difíceis de ler e mapear.,N,,,,,Y,,,
1054,396,P.04,P.04.1,"Prefiro ajustar meu editor de texto para me apresentar o código quebrado, ou não.",N,,,,,Y,,,
1229,547,P.04,P.04.1,"When just reading the test code, I don't really care that the methods throw exceptions (I just care about the logic of the test), so they're safe to hide off of the right side of the screen instead of taking up prime vertical real estate.",N,,,,,Y,,,
1485,767,P.04,P.04.1,"oni dividu tre longajn liniojn. la longeco de linioj dependas. 
la malnovegan 80 oni jam ne uzu, ĉar nuntempaj monitoroj estas pli grandaj. 
tamen tro longajn oni ne uzu",N,,,,,Y,,,
1523,807,P.04,P.04.1,cgnbfg,N,,,,,N,,,
1573,851,P.04,P.04.1,"me parece que o ""throws"" faz parte da assinatura do método, então faz mais sentido ficar na mesma linha.",N,,,,,Y,,,
1617,894,P.04,P.04.1,Mais legível pelo mesmo motivo do primeiro código.,N,,,,,N,,,
1644,921,P.04,P.04.1,Quebra de linha padronizada fazendo com que o trecho possa ser visualizado por inteiro ajuda na legibilidade.,N,,,,,Y,,,
941,299,P.04,P.04.2,"Javeiros adoram quebrar linha, mas não vejo vantagem nesse caso. E não tenho essa prática",N,,,,,N,,,
961,318,P.04,P.04.2,leito de uma unica vez,N,,,,,N,,,
1104,441,P.04,P.04.2,"Prefiro sempre que possível deixar a declaração na mesma linha, acho mais fácil sua leitura, principalmente quando a lista de atributos é muito grande.",N,,,,,Y,,,
1212,533,P.04,P.04.2,Constantes na mesma linha facilitam a leitura,N,,,,,N,,,
1302,614,P.04,P.04.2,"horizontal scrolling is bad, you should feel bad",N,,,,,Y,,,
1309,623,P.04,P.04.2,"O código ruim possui quebras de linha arbitrárias, que tornam o código desnecessariamente vertical, e separam a atribuição de seu valor. Tão ruim quanto separar sujeito de verbo com vírgula.",N,,,,,Y,,,
1351,658,P.04,P.04.2,"Less lines, more information on screen. Monitors nowadays have a 16:9 aspect ratio, let's make a good use of it. Swiveling monitors, loved by every programmer and their dogs, aren't widespread enough.",N,,,,,Y,,,
1371,675,P.04,P.04.2,"Right handled by multiple windows better; in this case it's not as readable, but if you were given a windows that could only display 80 characters before needing to scroll, it would be way better.",N,,,,,Y,,,
1431,721,P.04,P.04.2,"Prefiro manter em uma linha sempre que possível, mesmo que as vezes ultrapasse o limite de 80 colunas.",N,,,,,Y,,,
1515,799,P.04,P.04.2,"desde que eu esteja utilizando um monitor minimamente grande, 'oneliners' sao mais legiveis que multi linha",N,,,,,Y,,,
1519,803,P.04,P.04.2,O 2 cabe melhor no editor sem quebrar linha,N,,,,,Y,,,
1555,833,P.04,P.04.2,"levando em consideração que para programar é bom ter um monitor com uma tela um pouco maior e com os widescreen de hoje em dia, não vejo necessidade de fazer tanta quebra de linha.",N,,,,,Y,,,
1572,850,P.04,P.04.2,"em geral coloco o ""new"" na mesma linha do ""="", a não ser que extrapole muito a largura, o que não parece ser o caso aqui.",N,,,,,Y,,,
1595,873,P.04,P.04.2,"O outro tem um código muito longo. No caso de variáveis estáticas, prefiro uma variável por linha.",N,,,,,Y,,,
1630,907,P.04,P.04.2,Melhor reconhecimento dos identificadores.,N,,,,,N,,,
1118,451,P.04,P.04.3,"Fica confuse esse tipo de quebra de linha:
64                 GrapeRootRepositorySystemSessionAutoConfigurationTests
65                 .this.session,",N,,,,,Y,,,
1135,468,P.04,P.04.3,Uma referência que começa em uma linha e termina em outra pode confundir o leitor.,N,,,,,Y,,,
1175,501,P.04,P.04.3,os dois tem a mesma legibilidade pra mim,Y,,,,,N,,,
1507,791,P.04,P.04.3,"quebra na execução dos comandos melhor. ex:
38.  new GrapeRootRepositorySystemSessionAutoConfiguration()
39             .apply(this.session, this.repositorySystem);",N,,,,,Y,,,
1587,865,P.04,P.04.3,I don't think a code that has lots of line breaks in the middle of the instructions is better than long lines with no line breaks. Indenting and de-indenting just because of these breaks are much worse than no breaks.,N,,,,,Y,,,
830,195,P.05,P.05.1,"Na verdade, as duas opções são iguais. Só escolhi um para passar ao próximo e ver se é um problema. Estou visualizando num tablet, não sei se muda em algo",Y,,,,,N,,,
1093,428,P.05,P.05.1,parecem iguais,Y,,,,,N,,,
1153,484,P.05,P.05.1,Não vi diferença alguma.  Cliquei em qualquer um.,Y,,,,,N,,,
1188,510,P.05,P.05.1,Estão iguais.,Y,,,,,N,,,
1243,558,P.05,P.05.1,I am used to tabs instead of spaces.,N,,,,,Y,,,
1250,563,P.05,P.05.1,Indentation again ? Well I use a vertical monitor so... Small indents are good.,N,,,,,Y,,,
1279,591,P.05,P.05.1,só bati o olho e optei pelo segundo por falta de um NDA.,Y,,,,,N,,,
1289,602,P.05,P.05.1,I really struggle to find the difference. So it was not a very strong opinion.,Y,,,,,N,,,
1300,612,P.05,P.05.1,whitespaces ease the eyes,N,,,,,N,,,
1436,725,P.05,P.05.1,right is better.,N,,,,,N,,,
1562,840,P.05,P.05.1,"Sinceramente, com um breve olhar não vi diferença",Y,,,,,N,,,
1080,418,P.05,P.05.2,"A identação do código aparenta ser maior, o que para mim favorece a leitura do mesmo.",N,,,,,Y,,,
1119,452,P.05,P.05.2,A formatação trecho à esquerda facilita a navegação espacial dentro do código.,N,,,,,Y,,,
1210,531,P.05,P.05.2,A identação do primeiro código fez a diferença para a leitura,N,,,,,Y,,,
1249,562,P.05,P.05.2,Just a small indentation ( 2-3 spaces ) is enough,N,,,,,Y,,,
1286,599,P.05,P.05.2,Better spacing,N,,,,,N,,,
1412,703,P.05,P.05.2,4 spaces per tab offer better spacing imo,N,,,,,Y,,,
1433,727,P.05,P.05.2,"Linha 36 tem um tab a mais :P

Separar com linha em branco entre declaração de variáveis e bloco de código.",N,,,,,Y,,,
1553,831,P.05,P.05.2,"aparentemente o código da esquerda que eu escolhi, usou o TAB para identar alguns espaçamentos, é a maneira que uso, acho que o espaçamento com TAB torna o código mais legível do que mais próximo como usando espaço",N,,,,,Y,,,
1642,919,P.05,P.05.2,"Maior espaço de tabulação melhora a legibilidade, mesmo em um trecho poluído como este.",N,,,,,Y,,,
848,205,P.05,P.05.3,Um tab (2 espaços) é suficiente. Mas não acredito que a dupla identação torne o código menos legível.,N,,,,,Y,,,
988,339,P.05,P.05.3,"Identação com tab (aparentemente foi com a tecla ""tab"" o uso da identação)",N,,,,,N,,,
1024,383,P.05,P.05.3,"Our screens have a lot more horizontal space than vertical, let's make good use of it.",N,,,,,Y,,,
1048,391,P.05,P.05.3,"A indentação de dois níveis permite que mais código fique na tela, mantendo as linhas mais curtas.",N,,,,,Y,,,
1055,397,P.05,P.05.3,Prefiro utilizar tab e ajustar o espaçamento através do meu editor,N,,,,,Y,,,
1177,503,P.05,P.05.3,"Na verdade, considero equivalentes.",Y,,,,,N,,,
1326,635,P.05,P.05.3,O uso de tab melhora muito a legibilidade.,N,,,,,N,,,
1386,686,P.05,P.05.3,os 2 sao iguais,Y,,,,,N,,,
1448,733,P.05,P.05.3,No ideia,Y,,,,,N,,,
1527,811,P.05,P.05.3,An indent of 2 characters creates insufficient visual distance.,N,,,,,Y,,,
1551,828,P.05,P.05.3,Os códigos são semelhantes,Y,,,,,N,,,
1567,845,P.05,P.05.3,Java code conventions recomenda indentar com 4 espaços ou com tab,N,,,,,Y,,,
1588,866,P.05,P.05.3,"I don't think there is much difference between a 2-space and a 4-space indented code, but I prefer 4-space indentation because I'm more used to, more people use it around the world (kinda like a standardization) and it is a little easier to identify the indentation than a 2-space indented code.",Y,,,,,Y,,,
1612,889,P.05,P.05.3,Prefiro identação com 4 caracteres,N,,,,,N,,,
1616,893,P.05,P.05.3,É mais legível pela impossibilidade de scroll horizontal.,N,,,,,Y,,,
981,335,P.06,P.06.1,divisão e conquista (quebrar o problema em partes menores),N,,,,,Y,,,
1223,543,P.06,P.06.1,"Single-level-of-abstraction principle: I don't need all the details about the implementation of plotNormal and plotRotated when reading writeImages, I just want to understand the high level flow. As a matter of fact, writeImages would be more readable still if it hid some implementation details more, e.g. all the image setup and low-level int manipulation. Ideally we'd have one high level method that calls to more low level methods.",N,,,,,Y,,,
1280,593,P.06,P.06.1,"opa, funções menores, muito mais claro.",N,,,,,Y,,,
1294,606,P.06,P.06.1,Clearly better.,N,,,,,N,,,
1337,645,P.06,P.06.1,"Para mim não é uma regra, mas neste exemplo entendi melhor quando as funções foram definidas.",N,,,,,Y,,,
1440,728,P.06,P.06.1,Functions are good.,N,,,,,N,,,
1484,766,P.06,P.06.1,"nepre pli bone legeblas kodo, kiam ĝi estas dividita je malgrandaj sub-funkcioj.",N,,,,,Y,,,
1508,792,P.06,P.06.1,Separação do código melhor,N,,,,,Y,,,
1601,878,P.06,P.06.1,Função torna mais fácil a leitura e reutilização do código.,N,,,,,Y,,,
1674,947,P.06,P.06.1,Neste caso o que o código faz fica explícito no nome do método o que facilita o entendimento,N,,,,,Y,,,
990,342,P.06,P.06.2,"As verificações estão mais fáceis de entender.

OBS: Java por si mesmo é ilegível",N,,,,,N,,,
1094,430,P.06,P.06.2,as condições estão mais claras,N,,,,,Y,,,
1253,566,P.06,P.06.2,"Acho mais pratico com logica && verificar para continuar e acaba deixando o código mais ""enxuto""",N,,,,,Y,,,
1338,646,P.06,P.06.2,"Condicionais simples com, mais enxutas, permitem a leitura mais direta do código, sem ter que ir e voltar tantas vezes. Facilitam a memorização.",N,,,,,Y,,,
1432,722,P.06,P.06.2,Gosto de agrupar ifs aninhados quando possível e diminuir o nível de identação.,N,,,,,Y,,,
1476,758,P.06,P.06.2,"Tamanho menores dos blocos if's simplificam o entendimento com o ""passar dos olhos""",N,,,,,Y,,,
1580,858,P.06,P.06.2,Melhor entendimento do caminho da lógica,N,,,,,Y,,,
1530,814,P.09,P.09.2,Objeto intermediário parece desnecessário,N,,,,,Y,,,
1613,890,P.06,P.06.2,"Apoio o uso do AND ""&&"", desde que não execute o segundo termo, caso seja negativo o 1o termo.",N,,,,,Y,,,
846,204,P.06,P.06.3,Facilita a identificação do que cada parte do código é responsável por fazer.,N,,,,,Y,,,
1032,386,P.06,P.06.3,"I prefer the second one but only if those functions are used somewhere else too. If it's just for readability, I'd rather have a single function but separate logical blocks with blank lines and a put comment starting each block.",N,,,,,Y,,,
1167,495,P.06,P.06.3,"não comparei o funcionamento dos dois, porém o código escolhido esta mais agradável para leitura.",N,,,,,N,,,
1182,507,P.06,P.06.3,Codigo eleito muito mais legivel e de boa qualidade,N,,,,,N,,,
1251,564,P.06,P.06.3,"I do not agree with all ""one-liner"" functions in the right neither the one-point-call, too much personal opinion, but as a seasoned developer I know it´s better to state your intent as a shorter function if you can understand it as a pattern like ""init"" -> ""Do something"" in the right sample, It´s clear what is the ""init"" part.",N,,,,,Y,,,
1303,615,P.06,P.06.3,methods are nice,N,,,,,N,,,
1376,680,P.06,P.06.3,Easier to unit test too,N,,,,,Y,,,
1475,757,P.06,P.06.3,Separação das funcionalidades facilita a legibilidade,N,,,,,Y,,,
1526,810,P.06,P.06.3,Method names help say what the code is doing.,N,,,,,Y,,,
1582,860,P.06,P.06.3,cabe em uma pagina,N,,,,,Y,,,
1621,898,P.06,P.06.3,.çkl,N,,,,,N,,,
1672,945,P.06,P.06.3,Prefiro código curto,N,,,,,Y,,,
859,214,P.07,P.07.1,Pli da unu akcio per linio konfuzigas.,N,,,,,Y,,,
1170,497,P.07,P.07.1,"um statement por linha, sempre",N,,,,,Y,,,
1275,589,P.07,P.07.1,"ah, linhas em branco e um statement por linha é mais agradável.",N,,,,,Y,,,
1299,611,P.07,P.07.1,I'm just not a fan of multiple assignment on one line.,N,,,,,Y,,,
1353,659,P.07,P.07.1,"I'd go for the left example, as the assignments seem to be related and their amount and complexity are negligible, allowing a concise yet readable line. More complex expressions or larger number of assignments would point to a multi-line approach instead.",N,,,,,Y,,,
1364,670,P.07,P.07.1,Muito mais claro.,N,,,,,N,,,
1471,753,P.07,P.07.1,O respeito as intruções por linha ajuda na legibilidade,N,,,,,N,,,
1495,778,P.07,P.07.1,mi elektas la dekstran...,N,,,,,N,,,
1524,808,P.07,P.07.1,Individual statements on separate lines lets them be more easily compared. The Gdx.gl[|20|30] lines in particular benefit from this.,N,,,,,Y,,,
1671,944,P.07,P.07.1,New lines help,N,,,,,N,,,
845,203,P.07,P.07.2,Um comando por linha facilita a leitura.,N,,,,,N,,,
939,297,P.07,P.07.2,Não curto dois comandos na mesma linha.,N,,,,,N,,,
986,337,P.07,P.07.2,; == \r\n,N,,,,,N,,,
1038,384,P.07,P.07.2,It's not recommend use more attribution on the same line.,N,,,,,N,,,
1154,485,P.07,P.07.2,"Não vi diferença alguma, cliquei em qualquer um.",Y,,,,,N,,,
1298,610,P.07,P.07.2,Extra lines are free. Use them.,N,,,,,N,,,
1315,625,P.07,P.07.2,"Que aberração é essa, duas sentenças na mesma linha?! QUEIME COM FOGO!

Ambos os códigos são horríveis, por sinal, especialmente a construção grotesca das linhas 33 (caso 1) e 30 (caso 2).",N,,,,,Y,,,
1374,678,P.07,P.07.2,1 line per statement please (e.g. line 18 on the right),N,,,,,N,,,
1441,738,P.07,P.07.2,"Neste caso temos duas ações e fica mais fácil sua leitura, principalmente quando tivermos mais campos a serem setados.",N,,,,,Y,,,
1469,751,P.07,P.07.2,Multiple statements on the same line again. Ouch,N,,,,,N,,,
1514,798,P.07,P.07.2,Incluir mais de uma instrucao por linha reduz a legibilidade,N,,,,,N,,,
1556,834,P.07,P.07.2,colocou ,N,,,,,N,,,
1606,884,P.07,P.07.2,Bleh,N,,,,,N,,,
1619,896,P.07,P.07.2,"mais legível pois cada instrução está numa linha, diferente do código da esquerda, onde há linhas com mais de uma instrução.",N,,,,,N,,,
902,249,P.07,P.07.3,Dois comandos na mesma linha? NUNCA!,N,,,,,N,,,
932,288,P.07,P.07.3,"Dois comandos na mesma linha, igual na linha 3, é uma coisa que horrível.",N,,,,,N,,,
963,319,P.07,P.07.3,mais de um comando na mesma linha pode atrapalhar a leitura,N,,,,,N,,,
987,340,P.07,P.07.3,"Olhando de relance é fácil perceber as validações de cada variável no primeiro trecho. No segundo trecho está tudo como uma coisa só, pouco legível.",N,,,,,Y,,,
1086,422,P.07,P.07.3,Acredito ser melhor separar em linhas para compreensão.,N,,,,,N,,,
1339,647,P.07,P.07.3,"Uma instrução por linha, por favor.",N,,,,,N,,,
1455,743,P.07,P.07.3,Uma instrução por linha. Ou criar função que faça os dois assertThat.,N,,,,,N,,,
1466,748,P.07,P.07.3,"Multiple assert statements on the same lines are confusing, specially on verbose languages.",N,,,,,Y,,,
1504,788,P.07,P.07.3,i prefer one command per line,N,,,,,N,,,
1531,815,P.07,P.07.3,asserts explicitos,N,,,,,N,,,
1607,885,P.07,P.07.3,Muito fraco essa seleção. Assert agora tem a ver com legibilidade?,N,,,,,N,,,
1645,922,P.07,P.07.3,Uma linha por sentença.,N,,,,,N,,,
860,215,P.08,P.08.1,Malpli grandaj klasnomoj (ne pakaĵoj),N,,,,,N,,,
883,234,P.08,P.08.1,Tipos e nomes muito longos dificultam a leitura,N,,,,,Y,,,
897,246,P.08,P.08.1,"Se você precisa referenciar uma classe com uma timespace tão longa, eu preferiro usar o import.",N,,,,,Y,,,
978,330,P.08,P.08.1,"sem namespace inline, PELO AMOR DE DEUS",N,,,,,N,,,
1150,482,P.08,P.08.1,Mais direto ao assunto.,N,,,,,N,,,
1192,519,P.08,P.08.1,"A opção da direita é o melhor caso para manutenção de softwares a longo prazo, pois a informação do pacote auxilia no escopo de nomes (""namespaces"") das variáveis. Mas da forma como está colocada apenas torna o código mais verboso, com pouco impacto real na escrita e manutenção.
Por exemplo, como a variável ""listener"" é declarada apenas uma vez, o programador ainda deve procurar em qual pacote essa variável se encontra. Nesse caso seria olhando a declaração. Em outras palavras, o código da direita apenas redireciona onde o programador deve obter essa informação da variável. No caso (esquerda -> no topo de um arquivo; direita -> na declaração da variável). Não traz muitos impactos reais.
No C++, por exemplo, recomenda-se chamar uma função ou variável juntamente com o espaço de nome a qual ela pertence. Por exemplo, std::move(), significa que está utilizando o ""move()"" do namespace ""std"", assim como my::move(), significa que está utilizando o ""move()"" do namespace ""my"". Isso também deixa o código mais verboso mais auxilia na manutenção.",N,,,,,Y,,,
967,321,P.11,P.11.2,Os nomes das variáveis ajudam a entender o fluxo do código.,N,,,,,Y,,,
1369,674,P.08,P.08.1,"Please tell me no one really fully qualifies the types like that... This case is pretty radical, I could see it for smaller paths, but between these two the left is WAY better",N,,,,,N,,,
1377,681,P.08,P.08.1,"specifying the package everywhere will be very redundant when reading a lot of code, I'd assume in the left example the packages are specified elsewhere",N,,,,,Y,,,
1478,760,P.08,P.08.1,Nome de variáveis menores são mais amigáveis.,N,,,,,Y,,,
1490,770,P.08,P.08.1,ne necesas nomoj de pakaĵoj,N,,,,,Y,,,
1493,777,P.08,P.08.1,"Kompare per rekta vido mi facile rimarkas, ke la dekstra estas plej legebla.",N,,,,,N,,,
1513,797,P.08,P.08.1,a inclusao de nomes de pacotes na declaracao torna o codigo menos legivel.,N,,,,,Y,,,
1559,837,P.08,P.08.1,Por que achou que o outro seria mais legivel?,N,,,,,N,,,
1584,862,P.08,P.08.1,não tenho que movimentar a tela,N,,,,,N,,,
1288,601,P.08,P.08.2,"While the other option is more verbose, I find my chosen option to be the most convenient.",N,,,,,N,,,
1319,628,P.08,P.08.2,A explicitação das classes ajuda a evitar erros na leitura,N,,,,,Y,,,
1363,669,P.08,P.08.2,Muito mais direto.,N,,,,,N,,,
1420,711,P.08,P.08.2,La unua kodero uzas tro da metodoj/atributoj.,N,,,,,Y,,,
1424,714,P.08,P.08.2,"Tamen, je la dekstra kodo, vi devas importi la pakajxon bezonatajn por ke gxi funkciu",N,,,,,Y,,,
1480,762,P.08,P.08.2,Os nomes das variáveis alinhadas facilita a assimilação dos nomes e tipos.,N,,,,,Y,,,
857,212,P.08,P.08.3,La elektita kodero estas pli organizata pro uzi nur klasnomojn anstataŭ pakaĵojn kaj klasnomojn.,N,,,,,Y,,,
1200,522,P.08,P.08.3,I think use namespace in the lines you want to execute a command create more difficult. This way you should read a lot of information that is not required to understand the code. line 13 demonstrate that. I don't want to know the name space the TypeCapture is. I want to know if it is a TypeCapture.,N,,,,,Y,,,
1209,530,P.08,P.08.3,o comentário não é opcional,N,,,,,N,,Y,
1343,649,P.08,P.08.3,"Sem duvidas, se puder evitar o tamanho dos nomes fica melhor.",N,,,,,Y,,,
1428,718,P.08,P.08.3,"Prefiro utilizar o import ""com.google.guava.types.utils""",N,,,,,Y,,,
1482,764,P.08,P.08.3,"nomo de pakaĵo malfaciligas legadon, ĝi ne estas necesa.",N,,,,,Y,,,
1575,853,P.08,P.08.3,"Não sei se tem como evitar declarando no início o namespace que está sendo usado, mas acho que sempre escrever o namespace inteiro (ainda mais em um namespace longo como ""com.google.guava.types.utils.TypeCapture"") mais atrapalha do que ajuda no entendimento do código.",N,,,,,Y,,,
1581,859,P.08,P.08.3,visualmente é o melhor,N,,,,,N,,,
1600,877,P.08,P.08.3,"Facilia a leitura, a outra atrapalha a visão pois é muita coisa em um espaço pequeno.",N,,,,,Y,,,
1614,891,P.08,P.08.3,Sempre que possível reduzir o tamanho da referência a classe.,N,,,,,Y,,,
1622,899,P.08,P.08.3,"Quanto menos ""com.google.*"" dentro do código melhor",N,,,,,N,,,
1052,394,P.09,P.09.1,pegar a referência de um objeto 4 vezes seguidas me pareceu estranho,N,,,,,Y,,,
1085,421,P.09,P.09.1,Não sei dizer o motivo.,N,,,,,N,,,
1248,561,P.09,P.09.1,"Shorter horizontal code is better to see, I spend one or two lines of code to short by half the horizontal length of 10 lines",N,,,,,Y,,,
1290,603,P.09,P.09.1,"I find it clearer to to have shorter lines, and to call functions on a variable rather than inline",N,,,,,Y,,,
1362,668,P.09,P.09.1,"Não só por ser mais fácil, mas é um código mais eficiente.",N,,,,,Y,,,
1365,671,P.09,P.09.1,Less function calls.,N,,,,,Y,,,
1474,756,P.09,P.09.1,Os códigos são iguais,Y,,,,,N,,,
1494,776,P.09,P.09.1,La dekstra provaĵo estas pli legebla,N,,,,,N,,,
1593,871,P.09,P.09.1,Tem menos indireções (é melhor usar markerStyle do que alertMarker.getStyle()),N,,,,,Y,,,
1627,904,P.09,P.09.1,Identificação do objeto (tipo) de retorno do método getStyle() e possível ganho em desempenho.,N,,,,,Y,,,
894,245,P.09,P.09.2,Não criaria outra linha só para economizar um único getter().,N,,,,,Y,,,
1228,546,P.09,P.09.2,"In a test I really only care about three things: (1) what's the setup, (2) what's the action, (3) what's the assertion. As such, any line of code that hides this structure (like the intermediate variables introduced on the right) just adds overhead.",N,,,,,Y,,,
1256,569,P.09,P.09.2,"Nunca cheguei a fazer um teste de desempenho, mas neste caso, não teve algum que me cativou por ser mais legivel, votei no que tinha menos variaveis e menor linha",N,,,,,Y,,,
1419,710,P.09,P.09.2,Fari malpli longajn liniojn kaj difini apartajn variabojn estas pli legebla.,N,,,,,Y,,,
1429,719,P.09,P.09.2,Gosto de utilizar variáveis para guardar coisas que vão se repetir várias vezes: stateResponse.getState(),N,,,,,Y,,,
1635,912,P.09,P.09.2,Uso de variáveis temporários para simplificar o código e acelerar deixam o código mais claro.,N,,,,,Y,,,
834,199,P.09,P.09.3,Simplest way.,N,,,,,N,,,
886,236,P.09,P.09.3,"Prefiro não repetir a mesma chamada diversas vezes, mas é mais uma questão de eficiência do que legibilidade. Nesse caso, a legibilidade está bem equivalente.",N,,,,,Y,,,
1053,395,P.09,P.09.3,Mesmo problema do caso anterior. Pegar a referência de um mesmo objeto 4 vezes seguidas me pareceu estranho,N,,,,,Y,,,
1110,443,P.09,P.09.3,Diminuição do contexto de chamadas aumentam a legibilidade,N,,,,,Y,,,
1235,552,P.09,P.09.3,The variable used is close to the where it is declared. This makes reading easier since there isn't a need to scroll.,N,,,,,Y,,,
1287,600,P.09,P.09.3,I'm all for reducing code where it makes sense to do so.,N,,,,,Y,,,
1384,684,P.09,P.09.3,"readability-wise I find them equal, I'd prefer the left one though",Y,,,,,N,,,
882,233,P.10,P.10.1,Nunca vi alguem calcular uma condição de if dessa forma. Ainda bem! Me parece uma complicação completamente desnecessária,N,,,,,N,,,
1112,445,P.10,P.10.1,Pelo mesmo motivo de uma da questões anteriores onde havia a atribuição de booleanos auxiliares para depois testá-los no operador condicional.,N,,,,,Y,,,
1304,616,P.10,P.10.1,"logic condition simplification, nice. would be better if it was extracted as method.",N,,,,,Y,,,
1385,687,P.10,P.10.1,"finding out from the name ""newRoutingAllocationDiverges"" what it does seems more difficult to me than just using the booleans that make it up",N,,,,,Y,,,
1417,708,P.10,P.10.1,Difini la boolean-ojn aparte farigas la koderon pli klara por mi.,N,,,,,Y,,,
1450,737,P.10,P.10.1,Easeir to read parameters.,N,,,,,Y,,,
1534,818,P.10,P.10.1,"La komento super la kodo klarigas ĉion, mi trovas plej da bueloj antaŭ la kodo ne necesas ĉi tie.",N,,,,,Y,,,
1579,857,P.10,P.10.1,Variáveis explicam as condições logicas,N,,,,,Y,,,
1626,903,P.10,P.10.1,Declarar muitas variáveis no código apenas para os boolean acaba poluindo o código,N,,,,,Y,,,
975,336,P.10,P.10.2,No primeiro trecho é fácil entender que validationException recebe um valor quando as condições em concreteIndexExists e indicesExist são verdadeiras. No segundo isso não fica muito claro.,N,,,,,Y,,,
1031,385,P.10,P.10.2,"I am divided here: on one hand, giving things names and breaking long lines helps, but for this specific test it's straightforward enough that I don't mind putting it all together.",N,,,,,Y,,,
1034,379,P.10,P.10.2,It's better to seethe variables,N,,,,,N,,,
1091,426,P.10,P.10.2,"não foi necessário criar variaveis para testar condições de fluxo, achei desnecessario.",N,,,,,Y,,,
1098,437,P.10,P.10.2,"Particularmente me sinto mais a vontade em ler código lógico diretamente no operador condicional ""if"" ao invés de criar uma variável auxiliar para armazenar o booleano e então depois testá-lo.",N,,,,,Y,,,
1117,450,P.10,P.10.2,O trecho à esquerda esclarece o processo de decisão sobre a validação envolvendo índices.,N,,,,,Y,,,
1121,454,P.10,P.10.2,"Apesar do if ficar grande, usar um Boolean para definir condições não é intuitivo",N,,,,,Y,,,
1238,553,P.10,P.10.2,"Remove the unused variable from first code snippet, and it'll be better.",N,,,,,N,,,
1246,560,P.10,P.10.2,Boolean variable declarations in the middle of left code make it easier to see what is the condition but make it harder to see in witch if it is applied,N,,,,,Y,,,
1255,568,P.10,P.10.2,"Melhor para visualizar, mais claro, seria util o outro caso apenas se estivesse em um loop, assim não teria o custo de atribuir e checar.",N,,,,,Y,,,
1281,594,P.10,P.10.2,My chosen option is more concise but no harder to interpret,N,,,,,N,,,
1297,609,P.10,P.10.2,"Both are fine, but since it's a very lon conditional, a bit of explaining is nice.",N,,,,,Y,,,
1345,651,P.10,P.10.2,"Nomi kondiciojn estas stranga laŭ mi.

Alie, kial la maldekstra ne uzas ""isIndicesValid""?",N,,,,,Y,,,
1348,654,P.10,P.10.2,"The declarations in the left example are just boilerplate code, cruft, while the right counterpart should be obvious to every half-baked programmer.",N,,,,,Y,,,
1355,660,P.10,P.10.2,"Acho que expressar a lógicae colocar o resultado em variaveis, dando nomes como concreteIndexExists e isIndicesValid ajudam na leitura e entendimento para quem não conheçe a rotina.",N,,,,,Y,,,
1561,839,P.10,P.10.2,Menos linhas para ler a validação!,N,,,,,N,,,
1577,855,P.10,P.10.2,Mais simples entender condições do if,N,,,,,Y,,,
858,213,P.10,P.10.3,Exception tekstoj pli facile legeblas.,N,,,,,Y,,,
1051,393,P.10,P.10.3,"Os nomes dos métodos invocados já são claros o suficiente para passar a ideia do que eles fazem, deixando a atribuição a variáveis auxiliares redundante.",N,,,,,Y,,,
1079,417,P.10,P.10.3,Acredito que variáveis com uma boa definição do significado auxilia na compreensão de códigos grandes.,N,,,,,Y,,,
1179,504,P.10,P.10.3,Mais facil de ler os Ifs.,N,,,,,N,,,
1372,676,P.10,P.10.3,The named bools on the left helps,N,,,,,Y,,,
1608,886,P.10,P.10.3,Variáveis demais. Ambos os códigos estão muito grandes pra uma função.,N,,,,,Y,,,
1615,892,P.10,P.10.3,"Criar booleans ""auxiliares"" facilita a leitura e entendimento neste caso.",N,,,,,Y,,,
888,238,P.11,P.11.1,"Se a função é curta, nomes curtos são mais legíveis, pois a definição está no escopo.",N,,,,,Y,,,
909,257,P.11,P.11.1,Variáveis melhor identificada,N,,,,,Y,,,
1035,381,P.11,P.11.1,Put the usage name on variables is much better,N,,,,,Y,,,
1037,382,P.11,P.11.1,"Be explicit about what your variables mean, period.",N,,,,,Y,,,
1058,399,P.11,P.11.1,"Nomes mnemônicos são sempre melhores do que nomes crípticos como 'u', 'pu', 'n' e afins.",N,,,,,Y,,,
1291,604,P.11,P.11.1,"Explicit and descriptive variable names help to focus on what the code does (e.g. outputs) without having to actively check the implementation. Vice versa, if you don't use explanatory names you rely on the implementation to get what it does.",N,,,,,Y,,,
1327,636,P.11,P.11.1,o nome das variáveis expressam exatamente seu conteúdo.,N,,,,,Y,,,
1425,715,P.11,P.11.1,Mi elektas la dekstran cxar tie oni povas scii kion faras cxiu variablo,N,,,,,Y,,,
1443,735,P.11,P.11.1,Prefiro notação Húngara.,N,,,,,N,,,
1529,813,P.11,P.11.1,Nome explícitos,N,,,,,Y,,,
1605,883,P.11,P.11.1,Quase iguais. Nomes de variáveis bleh.,N,,,,,N,,,
1611,888,P.11,P.11.1,"Prefiro nomes de variáveis mais descritivo, do que usar somente as iniciais.",N,,,,,Y,,,
947,305,P.11,P.11.2,full var name is good,N,,,,,Y,,,
971,324,P.11,P.11.2,Declarar variáveis com nomes explicativos ajuda e muito!,N,,,,,Y,,,
989,341,P.11,P.11.2,Os nomes das variáveis estão mais fáceis de identificar,N,,,,,Y,,,
1036,387,P.11,P.11.2,This one is obvious.,N,,,,,N,,,
1180,505,P.11,P.11.2,Nomenclatura de variaveis de acordo com o que elas representam.,N,,,,,Y,,,
1334,643,P.11,P.11.2,Variáveis com nomes reconhecíveis facilitam a leitura do código.,N,,,,,Y,,,
1491,771,P.11,P.11.2,"plenaj nomoj estas pli bonaj, ol unu-du-literaj mallongaĵoj",N,,,,,Y,,,
1574,852,P.11,P.11.2,"É sempre melhor documentar o código no próprio código, colocando variáveis com nomes significativos. O ""d"" e ""c"" não significam nada, sendo necessário buscar na declaração o que eles são - e lembrar depois.",N,,,,,Y,,,
1576,854,P.11,P.11.2,variáveis descritivas,N,,,,,Y,,,
1658,935,P.11,P.11.2,"Não possui abreviações, ie, é mais fácil identificar os componentes",N,,,,,Y,,,
835,200,P.11,P.11.3,"The compiler changes the names, we have to know what it is.",N,,,,,Y,,,
878,229,P.11,P.11.3,mais enxuto,N,,,,,N,,,
1141,473,P.11,P.11.3,"O trecho à direita tenta deixar explícita a intenção de cada bloco de código por causa dos nomes completos dos identificadores. Mas essa é a única vantagem, uma vez que o código é péssimo e requer refatoração.",N,,,,,Y,,,
1213,534,P.11,P.11.3,Variáveis melhor descritas facilitaram a leitura,N,,,,,Y,,,
1224,544,P.11,P.11.3,"Naming: With the left code snippet, I have no idea what the abbreviated variable names are without referring back to the definition site. This means I have to keep more context in my brain which increases difficulty of reading.",N,,,,,Y,,,
1278,592,P.11,P.11.3,It's easier to decipher variable names when they're not abbreviations,N,,,,,Y,,,
1282,595,P.11,P.11.3,"esse é o caso de nome de variávei curto que não diz nada, a segunda opção é muito melhor.",N,,,,,Y,,,
1344,652,P.11,P.11.3,"The one at the left is easier to the eyes, but the more verbose one conveys more information. Browsing code briefly doesn't allow me to realize what ""te"" (line  23) is at first sight, while ""textElement""'s purpose is in plain sight, even if I don't know the proper type.",N,,,,,Y,,,
1375,679,P.11,P.11.3,"Clearer variable names, even though it make it longer",N,,,,,Y,,,
1383,685,P.11,P.11.3,deixa os elementos separados,N,,,,,Y,,,
1444,731,P.11,P.11.3,variable name is much better.,N,,,,,Y,,,
1518,802,P.11,P.11.3,textElement > te,N,,,,,Y,,,
1533,817,P.11,P.11.3,"Mi preferas plenajn variablnomojn. Tamen, ĝi devus sekvi pli striktan kolumnlimon (kiel 79 el PEP 8) kaj pli malgrandajn metodnomojn (hu... verbosa Java-o :S).",N,,,,,Y,,,
1549,829,P.11,P.11.3,Os códigos são semelhantes,Y,,,,,N,,,
1557,835,P.11,P.11.3,"sou a favor de criar nomes mais declarativos, não tem por que abreviar tanto; apesar de que dependendo da IDE usada, fica fácil identificar o Tipo de determinada variável ou instância de objeto;
mas prefiro nomes autoexplicativos;",N,,,,,Y,,,
1558,836,P.11,P.11.3,melhor declaração de variaveis,N,,,,,Y,,,
1625,902,P.11,P.11.3,"Nomes de variáveis mais informativos, mesmo com a método que retorna a variável ser bem descritivo, eu prefiro declarar nomes de variáveis que signifiquem algo e não apenas ""mil"" ou ""mtl""...",N,,,,,Y,,,
966,320,P.12,P.12.1,O alinhamento dos parâmetros ajuda a visualizar as instruções como um bloco único.,N,,,,,Y,,,
976,328,P.12,P.12.1,"frescura, mas alinhado ficou um pouco melhor, nada que impacta-se no cotidiano",N,,,,,Y,,,
1075,412,P.12,P.12.1,Não percebi diferença nos códigos.,Y,,,,,N,,,
1134,466,P.12,P.12.1,A mesma situação do exemplo anterior. O código não precisa se parecer com estrutura de dados.,N,,,,,Y,,,
1149,481,P.12,P.12.1,Não vejo tanta diferença.,Y,,,,,N,,,
1181,506,P.12,P.12.1,"Novamente, na minha opinião possuem legibilidade equivalentes",Y,,,,,N,,,
1316,626,P.12,P.12.1,Código-fonte não é planilha de Excel: as coisas não precisam ser alinhadas como se fossem células numa tabela.,N,,,,,Y,,,
1509,793,P.12,P.12.1,tabulação ajuda,N,,,,,Y,,,
1536,820,P.12,P.12.1,Mi lernas ne zorgi pri interspaco,N,,,,,Y,,,
1604,882,P.12,P.12.1,O outro embaralha as letras e dificulta minha leitura.,N,,,,,Y,,,
1659,936,P.12,P.12.1,Alinhamento desnecessário do outro exemplo,N,,,,,Y,,,
833,198,P.12,P.12.2,Sizes are never the same.,N,,,,,N,,,
887,237,P.12,P.12.2,"Diferente do outro exemplo, como o espaçamento foi pequeno, ele ajudou sim a tornar o código mais legível, e não simplesmente desprender um argumento do resto da chamada.",N,,,,,Y,,,
1072,413,P.12,P.12.2,"O código está organizado, por exemplo, os parentesis e os comandos new estão alinhados.",N,,,,,Y,,,
1234,551,P.12,P.12.2,Same reason as the previous question,N,,,,,N,,,
1324,633,P.12,P.12.2,Não gosto de separar a entrada de parâmetros do nome do método.,N,,,,,Y,,,
1481,763,P.12,P.12.2,"la dekstra (sen spacetoj) estas pli ofta, pli kutima, do ĝi legeblas pli facile",N,,,,,N,,,
863,217,P.12,P.12.3,The alignment is important.,N,,,,,N,,,
884,235,P.12,P.12.3,"O espaçamento, nesse caso, não ajudou a leitura.",N,,,,,Y,,,
1078,416,P.12,P.12.3,Idem questão 1. Existe alinhamento entre comandos. Exemplo: os comandos map estão um abaixo do outro.,N,,,,,Y,,,
1111,444,P.12,P.12.3,A identação aumenta a ligibilidade significativamente e dá um ar mais organizado,N,,,,,Y,,,
1132,465,P.12,P.12.3,Vários espaços entre a vírgula e o parâmetro não ajudam na leitura e não representam a realidade da maioria dos indentadores.,N,,,,,Y,,,
1230,550,P.12,P.12.3,Because I think it isn't worth the effort of aligning the code in the second code snippet.,N,,,,,Y,,,
1418,709,P.12,P.12.3,La taboj en la dua kodero estas ege malbona ideo kiu ne helpas legi la koderon.,N,,,,,N,,,
1430,720,P.12,P.12.3,"Gosto de manter indentação para linhas de código semelhantes seguidas, como inicializações e atribuições.",N,,,,,Y,,,
1560,838,P.12,P.12.3,"Sinceramente, não me importo com coisas ""alinhadas"" no código",N,,,,,Y,,,
1602,879,P.12,P.12.3,Me parece mas legível.,N,,,,,N,,,
1633,910,P.12,P.12.3,trechos dentro de funções/switches/ifs aninhados deixam o código mais claro,N,,,,,Y,,,
920,284,P.13,P.13.1,"Considero o primeiro quadro mais legível desde a linha 2, pelo incrível que pareça, o fato do param do metro estar com um nome reduzido, fazendo que o colchetes seja aberto antes, já fica mais claro. O param não perdeu o significado com uma descrição menor, e ajudou na legibilidade.",N,,,,,Y,,,
1056,398,P.13,P.13.1,Não faz muito sentido supercomplicar nome de variável quando o sentido dela é claro e direto com uma palavra só.,N,,,,,Y,,,
1083,419,P.13,P.13.1,"Acredito que dentro de um escopo, exceto que haja conflito de significado, não é necessário estender a explicação de uma variável.",N,,,,,Y,,,
1114,447,P.13,P.13.1,Quando as variáveis carregam o nome de seu contexto o código fica mais legível,N,,,,,Y,,,
1120,453,P.13,P.13.1,Uso do mainDisplay,N,,,,,N,,,
1321,630,P.13,P.13.1,O nome das variáveis me parece mais compreensível.,N,,,,,Y,,,
1336,644,P.13,P.13.1,"Adjetivos não facilitam a leitura por tornar mais complexo o contexto: se tenho um ""mainDisplay"" onde está o ""alternativeDisplay""?",N,,,,,Y,,,
1346,650,P.13,P.13.1,"Sem duvidas o nome do parametro no código da direita deixa mais óbvio o código, mas poderia ser um sample mais simples.",N,,,,,N,,,
1378,682,P.13,P.13.1,"the only difference I see is currentConfig vs config, the latter is fine for me",N,,,,,Y,,,
1486,768,P.13,P.13.1,du-radikaj estas pli klaraj,N,,,,,Y,,,
1510,794,P.13,P.13.1,nomenclatura mais completa,N,,,,,N,,,
1517,801,P.13,P.13.1,"idealmente prefiro camelCase, mas esse exemplo é tao simples (e acaba nao refletindo totalmente a realidade) que usar camelCase só piora a legibilidade.",N,,,,,Y,,,
1590,868,P.13,P.13.1,I chose the left one just because its lines are narrower.,N,,,,,Y,,,
1664,941,P.13,P.13.1,"It looks better if parameters are either in lower case, upper case or snake_case. camelCase doesn't really look good.",N,,,,,Y,,,
879,230,P.13,P.13.2,mesma bosta os 2,Y,,,,,N,,,
901,248,P.13,P.13.2,"O nome da variável não quer dizer exatamente nada, achei o exemplo ruim. Mas gosto de criar variáveis mais longas que explicam um pouco de pra que elas servem.",N,,,,,Y,,,
1092,429,P.13,P.13.2,Escolhei este pois o nome da instância do objeto ReactTextUpdate  como updateInfo me parece mais adequado ao contexto do que o método em questão está atualizando.,N,,,,,Y,,,
1199,521,P.13,P.13.2,"Only the object name has changed, in my opinion both are classified at the same level.",Y,,,,,Y,,,
1284,597,P.13,P.13.2,"I feel that the phrase ""update"" is too ambiguous in programming. By changing the name to updateInfo, I feel that the code becomes more readable/understandable.",N,,,,,Y,,,
1295,607,P.13,P.13.2,More descriptive var name wins.,N,,,,,Y,,,
1578,856,P.13,P.13.2,Variável explica melhor sua função,N,,,,,Y,,,
844,202,P.13,P.13.3,"Mais direto, mais simples de ler.",N,,,,,N,,,
936,290,P.13,P.13.3,I prefer shorter var names.,N,,,,,Y,,,
1137,470,P.13,P.13.3,O segundo exemplo nomeia os elementos de forma mais detalhada. O primeiro possui colisões de nomes de atributos e métodos.,N,,,,,Y,,,
1161,488,P.13,P.13.3,"nomes grandes, please",N,,,,,Y,,,
1173,499,P.13,P.13.3,Nomes mais detalhados facilitam a leitura sem ter que voltar até a declaração da variável,N,,,,,Y,,,
1261,574,P.13,P.13.3,"Left is much more readable, but the increased verbosity on the right does seem like it might be more maintainable to a new dev.",N,,,,,Y,,,
1271,586,P.13,P.13.3,"nomes de variáveis não precisam ser grandes, fazendo sentido no contexto já está ótimo. Outras coisas me incomodam muito mais, como esses tries/catches",N,,,,,Y,,,
1347,653,P.13,P.13.3,"La dekstra estas fakte malkorekta.  ""handleBuffer"" ja ne havas membron ""handleLength"".

Sed en la maldekstra, reuzi la nomon ""length"" estas tute malbona.",N,,,,,Y,,,
1368,673,P.13,P.13.3,longer variable name is clearer,N,,,,,Y,,,
1388,688,P.13,P.13.3,THE ONLY DIFFERENCE IS VARIABLE NAMES.. CODE IS STILL BIG AND WORDY,N,,,,,N,,,
1458,745,P.13,P.13.3,"Apesar de preferir notação Hungara, o nome pequeno de variável já é suficiente para identificar o propósito da variável.",N,,,,,Y,,,
1477,759,P.13,P.13.3,Visualizo que nomes de variáveis menores são mais amigáveis.,N,,,,,Y,,,
1483,765,P.13,P.13.3,"du-radikaj nomoj estas pli bonaj ol unu-radikaj. ili estas pli ĝustaj, kaj facile klarigas pri kio temas.
tamen oni ne estu fanatika ĉi tie, foje sufiĉas simplan, mallongan nomon.",N,,,,,Y,,,
1535,819,P.13,P.13.3,MI ŝatas pli priskribajn variablnomojn,N,,,,,Y,,,
1594,872,P.13,P.13.3,Variável com nome mais claro.,N,,,,,Y,,,
